[{"client_id":"0db9bd09-d0ed-42e8-b0a9-45051122f878","account_number":"3f4c591f-a884-48f5-8b39-490cc3559b7a","account_name":"Carolyne Gowdridge","account_type":"Cuenta Ganadora"},
{"client_id":"2871433c-23ac-4077-b279-8f3618d76924","account_number":"8c31cf26-4e7d-4d10-bdab-cfcf54416e2f","account_name":"Arel Halmkin","account_type":"Cuenta Ganadora"},
{"client_id":"bfb84d8d-231d-4af3-8a01-d266fd24e81a","account_number":"2a85bb54-956e-4fde-b0ad-744a37bafc49","account_name":"Pollyanna Alpes","account_type":"Cuenta Fácil"},
{"client_id":"7bda21f4-58ab-4959-aa2a-32d96ff96350","account_number":"f8bc868c-188f-4502-91a0-4b24445d2e4a","account_name":"Shepperd Ekless","account_type":"Cuenta Fácil"},
{"client_id":"4c67fb01-b2ca-4ed7-a59d-9dc821a57df5","account_number":"9cb75eeb-a62d-4f6a-97b9-6be7146acb45","account_name":"Bunnie Mounter","account_type":"Cuenta Fácil"},
{"client_id":"0ec42d81-d0c6-432f-8901-397ec8626d14","account_number":"7a5d31dd-6fcb-4ee0-9783-0c8db0b2c281","account_name":"Jordan Domenici","account_type":"Cuenta Ganadora"},
{"client_id":"264ce4a4-050c-4db2-a62a-e3476efc19b8","account_number":"0701f6ad-a2d4-4263-a67e-2a3e21c1d6b9","account_name":"Irvine Titterell","account_type":"Cuenta Fácil"},
{"client_id":"e85b9819-b2cf-47eb-8762-9ad7c9f0cc41","account_number":"65d9edef-a213-41ea-80b0-40f30ee6e6b1","account_name":"Gay Scamel","account_type":"Cuenta Ganadora"},
{"client_id":"6e387131-9952-4c43-88aa-43b9b1516e0b","account_number":"d9b2c019-b03a-4543-815f-365520849c31","account_name":"Penn Galliford","account_type":"Cuenta Fácil"},
{"client_id":"2980234a-6704-4ba1-b7f5-2e54f5592f21","account_number":"ead78a02-a599-4449-b7b0-0706ffde02a2","account_name":"Bale Bodd","account_type":"Cuenta Fácil"},
{"client_id":"28f994df-0dba-486a-a8d8-c951e37ef533","account_number":"65b29647-0eef-44c9-918e-0ac3efb6155d","account_name":"Barnie Garraway","account_type":"Cuenta Ganadora"},
{"client_id":"8da92921-304c-4441-a47b-15343f450e60","account_number":"ff9e55b6-ae57-4270-9e5e-a9e677811c2e","account_name":"Gonzales Esel","account_type":"Cuenta Ganadora"},
{"client_id":"fd6cdb61-1b10-4b51-ae8d-6fba5216c415","account_number":"98035b0e-5221-4c1a-8bfe-bcdd8eb78234","account_name":"Dulcy Woodnutt","account_type":"Cuenta Fácil"},
{"client_id":"9af6c290-afc1-4ea7-8767-ee5022145242","account_number":"66eede79-4265-4e67-89c7-4df27a05eb33","account_name":"Mercie Skates","account_type":"Cuenta Fácil"},
{"client_id":"3fa84330-d60c-4819-acc0-bcfaec9f2de5","account_number":"cb7dcff7-293a-494b-bbe6-8ee84a5649b7","account_name":"Brandi Skellorne","account_type":"Cuenta Fácil"},
{"client_id":"5506205f-e93c-4dc0-8dc0-0e3b529a64c8","account_number":"d2114ea8-02f7-4f3c-848d-b0b7da416d63","account_name":"Annecorinne Lewty","account_type":"Cuenta Fácil"},
{"client_id":"5fa3288a-b682-499e-a722-da963a215af4","account_number":"d7f8f1bd-2b42-4464-ace7-16a39c0c65b5","account_name":"Melina Wharton","account_type":"Cuenta Ganadora"},
{"client_id":"0c6d0810-3a75-472b-8b91-fcea5e7971de","account_number":"00284651-63e6-4ba8-acfa-2b796683120a","account_name":"Deb Radclyffe","account_type":"Cuenta Ganadora"},
{"client_id":"64068818-76bc-4d12-9e9e-d7d1a46f4c1d","account_number":"a1e2694c-2d7e-4ca0-a802-d94413760da4","account_name":"Pebrook Newtown","account_type":"Cuenta Fácil"},
{"client_id":"89413813-0056-4e80-91f9-6c5b32cb0e96","account_number":"166ee32a-52ea-4eb7-942a-e134597b5f52","account_name":"Judd Mayberry","account_type":"Cuenta Ganadora"},
{"client_id":"211e5370-8c37-41e7-a354-076d5c7aec5a","account_number":"7a944deb-5cc3-472f-a046-ddb05512675c","account_name":"Vivyanne O'Dooghaine","account_type":"Cuenta Ganadora"},
{"client_id":"b53096b9-c6c2-4726-a329-564e9b41cd68","account_number":"698e455c-76f5-4e76-ac1d-3f600fbea7b7","account_name":"Ebonee Cowndley","account_type":"Cuenta Fácil"},
{"client_id":"8a5834c1-6361-4107-8811-0c2e3d8fd2ba","account_number":"e919641e-5e51-46ca-b5b3-db3ad2048951","account_name":"Kaycee Petto","account_type":"Cuenta Fácil"},
{"client_id":"d0e7eaae-bfc5-4971-a5df-42965adec131","account_number":"09fe1bd3-54c8-44a3-9dfa-d95c2329269d","account_name":"Sheena Jealous","account_type":"Cuenta Fácil"},
{"client_id":"1283fac0-b640-477d-a24f-3d0e1f30c8ff","account_number":"e6fa1152-3194-4920-b6be-50685aeb6567","account_name":"Hewett Tallboy","account_type":"Cuenta Fácil"},
{"client_id":"6f32a49f-8fa3-4e7a-9621-7271ffff75dc","account_number":"8892ad98-a8fc-4a15-89b1-bbdcd9042b81","account_name":"Richmound Lamball","account_type":"Cuenta Fácil"},
{"client_id":"b349f948-1b9c-4d77-94df-bb084668da3e","account_number":"f960dfe0-3b7e-48cd-8f2f-946ee878fca0","account_name":"Stephine Cosgriff","account_type":"Cuenta Ganadora"},
{"client_id":"4fc28aab-1e0b-4f7f-97b5-bbd7be6f7ad9","account_number":"2baedbcf-1230-4840-8a34-7a7453e269c0","account_name":"Willdon Gallop","account_type":"Cuenta Ganadora"},
{"client_id":"dd2657dc-6c6d-43f9-962a-c2c01a735e2c","account_number":"d0741bec-acac-4944-b5c1-340a3c2bdde3","account_name":"Martainn Rigney","account_type":"Cuenta Fácil"},
{"client_id":"6a6a66f5-04c0-4758-bbe3-47eaae34e6b0","account_number":"5c93721f-7688-484f-ae78-bb042b02f60a","account_name":"Haily Andreolli","account_type":"Cuenta Fácil"},
{"client_id":"adbc73a2-99df-463e-8d2c-f01a47d29d4f","account_number":"b88cca92-0919-4c54-b30b-f52475b7f896","account_name":"Anjanette Fielding","account_type":"Cuenta Fácil"},
{"client_id":"dfb82476-7f27-46b1-a3c9-49cbbe5362f3","account_number":"ba1672ec-232e-4d45-910a-181abba881ac","account_name":"Ursuline Rosenhaus","account_type":"Cuenta Fácil"},
{"client_id":"a5a719d9-6c74-48b7-9429-01b2d3ed4507","account_number":"77550898-7dde-4c0d-8713-5c468b979dff","account_name":"Whitby Featherstonhaugh","account_type":"Cuenta Ganadora"},
{"client_id":"7e0f5592-ac90-430c-9002-2ab7f4d46be1","account_number":"070e8856-ccae-418b-bad3-9142e84f513c","account_name":"Greg Lathe","account_type":"Cuenta Fácil"},
{"client_id":"a52d97a1-e7af-4d75-8936-2866663545cd","account_number":"049f31c6-32c0-4edf-a361-613093a3afd8","account_name":"Marcellus Ducarne","account_type":"Cuenta Ganadora"},
{"client_id":"0f4c55b9-b00b-4952-9d1c-b53bf3b40b26","account_number":"a17d1d9b-6ba5-438a-a5d4-11a307854828","account_name":"Deanne Thurner","account_type":"Cuenta Ganadora"},
{"client_id":"a658a265-a91c-465e-819d-26eba9b29114","account_number":"ca92e0ce-ee31-4ab1-b855-ba26b320485c","account_name":"Sergei Brearley","account_type":"Cuenta Fácil"},
{"client_id":"90f07edc-2338-44bb-bfd2-7db6730b0736","account_number":"28356219-1a90-4a1e-9271-46200345b8d2","account_name":"Karl Breacher","account_type":"Cuenta Fácil"},
{"client_id":"19b76ac0-7249-477c-a4c2-e899a57c07dd","account_number":"76eccbe5-6cf6-4b9a-9229-3ec089d542df","account_name":"Neils Toretta","account_type":"Cuenta Ganadora"},
{"client_id":"e0954221-f4a7-40d1-b40e-53cbb0423f77","account_number":"573741be-826c-4048-8930-e640490ca91b","account_name":"Marney Fishleigh","account_type":"Cuenta Fácil"},
{"client_id":"cb69ae35-5aa6-4220-b52d-d772ba8987b9","account_number":"650e2f08-ea9c-41bf-8a2a-8d8ca37c2fa3","account_name":"Fredelia Cordier","account_type":"Cuenta Ganadora"},
{"client_id":"d26f4886-f6df-46f0-a3f1-7e041ad03a27","account_number":"cbd80c58-dbee-4171-afce-11040600505a","account_name":"Beaufort Fierman","account_type":"Cuenta Ganadora"},
{"client_id":"4ead004f-a45b-47e8-866d-ea963ac71816","account_number":"ea421e62-45c0-46ea-9841-f6db6eaa1513","account_name":"Chan Jarrold","account_type":"Cuenta Ganadora"},
{"client_id":"83d07c97-47b1-4e63-94c9-5ffaf84c40e2","account_number":"ae967e68-2852-4d48-8881-cc457b73c361","account_name":"Lyn Fordyce","account_type":"Cuenta Fácil"},
{"client_id":"b9e07243-d002-4493-971b-c87ce796a6df","account_number":"de7b329a-c42b-450b-b491-d66a4faba3c3","account_name":"Jaynell Ainsby","account_type":"Cuenta Fácil"},
{"client_id":"98c0d935-ee07-4042-abe9-49fd00a96f32","account_number":"23d17387-7d91-4fed-a7a2-75c59acc0d2b","account_name":"Dallas Pickaver","account_type":"Cuenta Fácil"},
{"client_id":"fcd76dbb-3b3a-43ff-8eab-b5c13c899a39","account_number":"fea0633a-eb51-4ad6-90a0-f4b7d5241fb0","account_name":"Chrissy Routhorn","account_type":"Cuenta Fácil"},
{"client_id":"70276995-c78f-4f94-83e3-46b882f7b14b","account_number":"fb76be8b-8517-4092-bc50-2ab1fd4cd587","account_name":"Waldo Santorini","account_type":"Cuenta Ganadora"},
{"client_id":"8672ae86-f08e-4c57-9389-09d5702890c5","account_number":"3772fbef-eecd-4257-b442-f31a9927f015","account_name":"Ada Chiene","account_type":"Cuenta Ganadora"},
{"client_id":"9a5002a3-4db9-4083-a628-1982331baa29","account_number":"7ee9381b-1470-445d-a9fc-c1c0df9b279a","account_name":"Gabbey Gudeman","account_type":"Cuenta Fácil"}]