[{"account_id":"04a4aac6-70d7-446d-8125-b301c8d56e6d","amount":"$0.71","description":"Fintone","date":"6/18/2019","location_latitude":51.513694,"location_longitude":5.361629,"type":"-"},
{"account_id":"a5889e47-bf85-4ef2-8c45-ff9e27505e45","amount":"$0.88","description":"Viva","date":"1/5/2019","location_latitude":"-9.4116","location_longitude":"119.3532","type":"+"},
{"account_id":"30e6d998-6bd5-4c9c-ac93-86a43c94fd47","amount":"$0.85","description":"Sonair","date":"2/23/2023","location_latitude":38.9951183,"location_longitude":139.9228567,"type":"+"},
{"account_id":"a5889e47-bf85-4ef2-8c45-ff9e27505e45","amount":"$2.39","description":"Pannier","date":"3/27/2020","location_latitude":-8.0515728,"location_longitude":112.8343844,"type":"+"},
{"account_id":"9fe692c0-3a96-4428-bbae-e73120632cd6","amount":"$6.33","description":"Vagram","date":"8/23/2020","location_latitude":38.0187253,"location_longitude":140.1471983,"type":"-"},
{"account_id":"1e82ffbb-de2b-428f-a939-d9a421bb2023","amount":"$6.39","description":"Bitwolf","date":"9/10/2019","location_latitude":34.3963158,"location_longitude":35.8958444,"type":"+"},
{"account_id":"1e82ffbb-de2b-428f-a939-d9a421bb2023","amount":"$8.56","description":"Flowdesk","date":"8/16/2020","location_latitude":-8.5309777,"location_longitude":-37.1239897,"type":"-"},
{"account_id":"5f4bbec3-3bf8-4215-b8b9-d7ea1be10f72","amount":"$5.32","description":"Stim","date":"10/9/2022","location_latitude":25.495241,"location_longitude":103.805012,"type":"-"},
{"account_id":"5f4bbec3-3bf8-4215-b8b9-d7ea1be10f72","amount":"$9.66","description":"Transcof","date":"6/5/2018","location_latitude":-16.4510937,"location_longitude":-41.0394028,"type":"-"},
{"account_id":"81f19fbd-0c0a-441e-bbba-2ca5ecd5aae9","amount":"$9.68","description":"Tempsoft","date":"4/18/2018","location_latitude":14.9024411,"location_longitude":120.8537936,"type":"-"},
{"account_id":"fffdc68f-e5c3-4ab7-a0fc-23733c6e909f","amount":"$5.11","description":"Lotlux","date":"7/3/2023","location_latitude":-6.2287891,"location_longitude":106.6914555,"type":"-"},
{"account_id":"4e898bdf-95c1-4e64-92c5-145f5bf66903","amount":"$7.89","description":"Voltsillam","date":"12/9/2021","location_latitude":11.8816553,"location_longitude":-15.6177942,"type":"+"},
{"account_id":"81f19fbd-0c0a-441e-bbba-2ca5ecd5aae9","amount":"$1.08","description":"Domainer","date":"10/2/2021","location_latitude":40.407578,"location_longitude":118.949684,"type":"+"},
{"account_id":"905bed78-1d7c-4703-b66d-8162992a5023","amount":"$9.11","description":"Trippledex","date":"5/7/2021","location_latitude":-0.3688967,"location_longitude":35.286286,"type":"+"},
{"account_id":"5f4bbec3-3bf8-4215-b8b9-d7ea1be10f72","amount":"$0.91","description":"Rank","date":"7/5/2018","location_latitude":50.3919,"location_longitude":30.368267,"type":"+"},
{"account_id":"1e82ffbb-de2b-428f-a939-d9a421bb2023","amount":"$3.42","description":"Redhold","date":"2/5/2023","location_latitude":-12.6010371,"location_longitude":-38.965934,"type":"-"},
{"account_id":"b138f9fe-4385-4675-a677-2640fb09a4ae","amount":"$8.80","description":"Namfix","date":"9/4/2020","location_latitude":32.5609226,"location_longitude":36.0086971,"type":"+"},
{"account_id":"a5889e47-bf85-4ef2-8c45-ff9e27505e45","amount":"$8.29","description":"Tempsoft","date":"1/9/2023","location_latitude":"15.52591","location_longitude":"47.63339","type":"+"},
{"account_id":"145a358d-7e13-4065-8761-5aff149c9195","amount":"$1.09","description":"Vagram","date":"5/6/2019","location_latitude":11.8566874,"location_longitude":38.015522,"type":"-"},
{"account_id":"fb1132ee-e83b-4960-97c7-1505df92e413","amount":"$0.76","description":"It","date":"6/16/2024","location_latitude":41.1645867,"location_longitude":-7.7937927,"type":"-"},
{"account_id":"5cb0c096-80b7-47d9-8f26-c8e4d514452a","amount":"$0.24","description":"Mat Lam Tam","date":"7/21/2020","location_latitude":35.872664,"location_longitude":120.04619,"type":"+"},
{"account_id":"7fcf9335-d179-465a-8f1a-ef3f68c97bd8","amount":"$4.84","description":"Job","date":"5/8/2022","location_latitude":55.7977131,"location_longitude":38.439524,"type":"-"},
{"account_id":"fffdc68f-e5c3-4ab7-a0fc-23733c6e909f","amount":"$8.12","description":"Cardguard","date":"1/24/2018","location_latitude":7.95,"location_longitude":4.983333,"type":"-"},
{"account_id":"81f19fbd-0c0a-441e-bbba-2ca5ecd5aae9","amount":"$9.60","description":"Tresom","date":"5/20/2019","location_latitude":-7.4516994,"location_longitude":112.7159574,"type":"-"},
{"account_id":"145a358d-7e13-4065-8761-5aff149c9195","amount":"$5.77","description":"Zoolab","date":"9/10/2018","location_latitude":-7.6144216,"location_longitude":110.7742709,"type":"-"},
{"account_id":"aa8516e1-ebdf-4d72-b651-3d1a3fca3275","amount":"$6.98","description":"Sub-Ex","date":"7/12/2020","location_latitude":15.607875,"location_longitude":39.4553839,"type":"-"},
{"account_id":"b138f9fe-4385-4675-a677-2640fb09a4ae","amount":"$7.83","description":"Voyatouch","date":"4/27/2023","location_latitude":27.246947,"location_longitude":114.702652,"type":"+"},
{"account_id":"1e82ffbb-de2b-428f-a939-d9a421bb2023","amount":"$9.14","description":"Cardify","date":"4/16/2022","location_latitude":17.0405373,"location_longitude":99.0571089,"type":"-"},
{"account_id":"b40185b9-0127-484a-bd35-863a6ee85c60","amount":"$8.27","description":"Biodex","date":"3/19/2020","location_latitude":0.7821696,"location_longitude":120.5307881,"type":"-"},
{"account_id":"5f4bbec3-3bf8-4215-b8b9-d7ea1be10f72","amount":"$5.23","description":"Bigtax","date":"2/22/2022","location_latitude":7.5273576,"location_longitude":125.6239227,"type":"+"},
{"account_id":"81f19fbd-0c0a-441e-bbba-2ca5ecd5aae9","amount":"$4.09","description":"Aerified","date":"4/26/2023","location_latitude":49.8602445,"location_longitude":13.7726288,"type":"-"},
{"account_id":"a5889e47-bf85-4ef2-8c45-ff9e27505e45","amount":"$5.53","description":"Voyatouch","date":"2/22/2021","location_latitude":-10.4585809,"location_longitude":121.9615308,"type":"-"},
{"account_id":"d62e19d5-df87-40fb-ae2b-d77342620c80","amount":"$3.90","description":"Tampflex","date":"8/18/2023","location_latitude":-7.3706874,"location_longitude":108.5342487,"type":"-"},
{"account_id":"b40185b9-0127-484a-bd35-863a6ee85c60","amount":"$8.08","description":"Zathin","date":"8/18/2023","location_latitude":37.535809,"location_longitude":121.386029,"type":"+"},
{"account_id":"62a05934-b9c6-4818-ad49-0b8f0ae14f91","amount":"$4.00","description":"Biodex","date":"6/4/2021","location_latitude":-7.3790406,"location_longitude":107.3198424,"type":"+"},
{"account_id":"a5889e47-bf85-4ef2-8c45-ff9e27505e45","amount":"$9.21","description":"Asoka","date":"7/9/2019","location_latitude":-0.5732343,"location_longitude":117.1323579,"type":"+"},
{"account_id":"b138f9fe-4385-4675-a677-2640fb09a4ae","amount":"$2.54","description":"Zamit","date":"7/22/2024","location_latitude":19.5463056,"location_longitude":105.0791228,"type":"-"},
{"account_id":"9fe692c0-3a96-4428-bbae-e73120632cd6","amount":"$3.80","description":"Ronstring","date":"1/29/2022","location_latitude":40.7143433,"location_longitude":-8.0108755,"type":"-"},
{"account_id":"a5889e47-bf85-4ef2-8c45-ff9e27505e45","amount":"$2.54","description":"Kanlam","date":"3/9/2021","location_latitude":24.808198,"location_longitude":118.03177,"type":"-"},
{"account_id":"9fe692c0-3a96-4428-bbae-e73120632cd6","amount":"$1.53","description":"Daltfresh","date":"5/3/2022","location_latitude":21.1596123,"location_longitude":-76.4736602,"type":"+"},
{"account_id":"145a358d-7e13-4065-8761-5aff149c9195","amount":"$7.23","description":"Stronghold","date":"10/7/2019","location_latitude":4.6802367,"location_longitude":-74.2296713,"type":"+"},
{"account_id":"216b93c6-525a-4c74-ba09-2efea1df84aa","amount":"$7.36","description":"Stim","date":"4/25/2024","location_latitude":35.937102,"location_longitude":116.470304,"type":"+"},
{"account_id":"4e898bdf-95c1-4e64-92c5-145f5bf66903","amount":"$7.53","description":"Konklab","date":"2/19/2021","location_latitude":15.92762,"location_longitude":120.413631,"type":"+"},
{"account_id":"9fe692c0-3a96-4428-bbae-e73120632cd6","amount":"$2.22","description":"Fix San","date":"2/26/2022","location_latitude":-6.4185424,"location_longitude":106.8502879,"type":"-"},
{"account_id":"4e898bdf-95c1-4e64-92c5-145f5bf66903","amount":"$9.35","description":"Konklab","date":"4/5/2021","location_latitude":33.4614354,"location_longitude":9.0294708,"type":"+"},
{"account_id":"7fcf9335-d179-465a-8f1a-ef3f68c97bd8","amount":"$1.19","description":"Veribet","date":"4/1/2023","location_latitude":31.2169358,"location_longitude":107.497911,"type":"-"},
{"account_id":"04a4aac6-70d7-446d-8125-b301c8d56e6d","amount":"$7.02","description":"Ventosanzap","date":"5/13/2018","location_latitude":59.7458284,"location_longitude":18.6851872,"type":"-"},
{"account_id":"4e898bdf-95c1-4e64-92c5-145f5bf66903","amount":"$8.02","description":"Span","date":"11/30/2018","location_latitude":50.887101,"location_longitude":-2.355369,"type":"+"},
{"account_id":"30e6d998-6bd5-4c9c-ac93-86a43c94fd47","amount":"$5.08","description":"Wrapsafe","date":"10/31/2021","location_latitude":37.6351721,"location_longitude":22.7288576,"type":"+"},
{"account_id":"7fcf9335-d179-465a-8f1a-ef3f68c97bd8","amount":"$6.39","description":"Stronghold","date":"7/26/2019","location_latitude":46.4232734,"location_longitude":14.1113375,"type":"+"},
{"account_id":"5cb0c096-80b7-47d9-8f26-c8e4d514452a","amount":"$0.23","description":"Cardify","date":"5/21/2023","location_latitude":9.762345,"location_longitude":140.5161464,"type":"+"},
{"account_id":"fb1132ee-e83b-4960-97c7-1505df92e413","amount":"$2.59","description":"Trippledex","date":"6/11/2020","location_latitude":-2.8852569,"location_longitude":104.687936,"type":"-"},
{"account_id":"7d76b92a-1cfa-466d-8313-68ec8145613c","amount":"$4.42","description":"Lotstring","date":"2/24/2018","location_latitude":50.0478165,"location_longitude":23.4271937,"type":"-"},
{"account_id":"1e82ffbb-de2b-428f-a939-d9a421bb2023","amount":"$1.07","description":"Zoolab","date":"8/1/2023","location_latitude":36.689044,"location_longitude":117.302269,"type":"-"},
{"account_id":"aa8516e1-ebdf-4d72-b651-3d1a3fca3275","amount":"$9.53","description":"Zaam-Dox","date":"10/14/2018","location_latitude":51.7610501,"location_longitude":5.5510411,"type":"-"},
{"account_id":"145a358d-7e13-4065-8761-5aff149c9195","amount":"$0.01","description":"Cardify","date":"10/13/2024","location_latitude":41.2164036,"location_longitude":-75.9142437,"type":"+"},
{"account_id":"890643c6-ca4d-47ea-a3ce-c53a64608ba7","amount":"$8.70","description":"It","date":"12/15/2018","location_latitude":-8.0936589,"location_longitude":112.1107297,"type":"-"},
{"account_id":"62a05934-b9c6-4818-ad49-0b8f0ae14f91","amount":"$0.19","description":"Voyatouch","date":"8/21/2023","location_latitude":-18.4001194,"location_longitude":47.8699039,"type":"+"},
{"account_id":"4e898bdf-95c1-4e64-92c5-145f5bf66903","amount":"$6.20","description":"Span","date":"8/11/2021","location_latitude":-44.7299187,"location_longitude":-72.6822812,"type":"+"},
{"account_id":"62a05934-b9c6-4818-ad49-0b8f0ae14f91","amount":"$1.04","description":"Asoka","date":"12/20/2021","location_latitude":31.4299792,"location_longitude":120.096494,"type":"+"},
{"account_id":"145a358d-7e13-4065-8761-5aff149c9195","amount":"$4.33","description":"Aerified","date":"9/13/2020","location_latitude":-6.9218452,"location_longitude":112.867154,"type":"+"},
{"account_id":"","amount":"$6.04","description":"Latlux","date":"12/4/2024","location_latitude":37.7870331,"location_longitude":20.8998759,"type":"+"},
{"account_id":"7fcf9335-d179-465a-8f1a-ef3f68c97bd8","amount":"$7.98","description":"Biodex","date":"8/6/2022","location_latitude":19.4682476,"location_longitude":-70.6923348,"type":"+"},
{"account_id":"81f19fbd-0c0a-441e-bbba-2ca5ecd5aae9","amount":"$2.73","description":"Transcof","date":"12/26/2020","location_latitude":38.1283,"location_longitude":46.678551,"type":"-"},
{"account_id":"aa8516e1-ebdf-4d72-b651-3d1a3fca3275","amount":"$2.10","description":"Konklux","date":"11/30/2021","location_latitude":11.4820004,"location_longitude":122.3040009,"type":"+"},
{"account_id":"5cb0c096-80b7-47d9-8f26-c8e4d514452a","amount":"$8.49","description":"Flexidy","date":"4/4/2018","location_latitude":41.4514619,"location_longitude":-8.4873087,"type":"-"},
{"account_id":"aa8516e1-ebdf-4d72-b651-3d1a3fca3275","amount":"$4.13","description":"Ventosanzap","date":"6/23/2021","location_latitude":41.5113285,"location_longitude":-8.662365,"type":"+"},
{"account_id":"aa8516e1-ebdf-4d72-b651-3d1a3fca3275","amount":"$0.58","description":"Latlux","date":"6/22/2024","location_latitude":38.2660853,"location_longitude":140.8914899,"type":"-"},
{"account_id":"81f19fbd-0c0a-441e-bbba-2ca5ecd5aae9","amount":"$8.56","description":"Duobam","date":"2/27/2018","location_latitude":8.1176382,"location_longitude":-80.593833,"type":"-"},
{"account_id":"b40185b9-0127-484a-bd35-863a6ee85c60","amount":"$3.29","description":"Prodder","date":"12/8/2019","location_latitude":30.9765009,"location_longitude":30.9531791,"type":"-"},
{"account_id":"4e898bdf-95c1-4e64-92c5-145f5bf66903","amount":"$1.21","description":"Vagram","date":"5/22/2019","location_latitude":-4.0078909,"location_longitude":-79.2112769,"type":"+"},
{"account_id":"a5889e47-bf85-4ef2-8c45-ff9e27505e45","amount":"$7.40","description":"Bigtax","date":"1/16/2020","location_latitude":"-12.31086","location_longitude":"44.43702","type":"+"},
{"account_id":"04a4aac6-70d7-446d-8125-b301c8d56e6d","amount":"$8.57","description":"Keylex","date":"3/27/2023","location_latitude":55.1065195,"location_longitude":59.7112737,"type":"-"},
{"account_id":"4e898bdf-95c1-4e64-92c5-145f5bf66903","amount":"$3.93","description":"Daltfresh","date":"1/27/2023","location_latitude":-15.0144051,"location_longitude":-39.299866,"type":"-"},
{"account_id":"b138f9fe-4385-4675-a677-2640fb09a4ae","amount":"$7.81","description":"Flowdesk","date":"6/19/2022","location_latitude":13.6216631,"location_longitude":-87.8991514,"type":"-"},
{"account_id":"9fe692c0-3a96-4428-bbae-e73120632cd6","amount":"$3.59","description":"Y-find","date":"3/5/2023","location_latitude":41.0647873,"location_longitude":-8.5507322,"type":"+"},
{"account_id":"d62e19d5-df87-40fb-ae2b-d77342620c80","amount":"$3.76","description":"Treeflex","date":"6/23/2019","location_latitude":-2.4170155,"location_longitude":115.5444231,"type":"-"},
{"account_id":"b40185b9-0127-484a-bd35-863a6ee85c60","amount":"$2.92","description":"Zontrax","date":"8/1/2024","location_latitude":25.0617484,"location_longitude":68.6593883,"type":"+"},
{"account_id":"1e82ffbb-de2b-428f-a939-d9a421bb2023","amount":"$7.88","description":"Y-Solowarm","date":"6/8/2022","location_latitude":-22.0791603,"location_longitude":-51.477858,"type":"-"},
{"account_id":"7fcf9335-d179-465a-8f1a-ef3f68c97bd8","amount":"$7.97","description":"Wrapsafe","date":"12/4/2021","location_latitude":35.6619592,"location_longitude":140.3178323,"type":"+"},
{"account_id":"20382b16-19d1-439d-af42-c05e0100c06e","amount":"$1.13","description":"Bamity","date":"8/26/2020","location_latitude":-14.2581428,"location_longitude":-39.3932232,"type":"-"},
{"account_id":"4e898bdf-95c1-4e64-92c5-145f5bf66903","amount":"$8.59","description":"Temp","date":"5/23/2018","location_latitude":-6.2056665,"location_longitude":107.0251946,"type":"+"},
{"account_id":"aa8516e1-ebdf-4d72-b651-3d1a3fca3275","amount":"$8.75","description":"Tin","date":"12/30/2018","location_latitude":33.425934,"location_longitude":66.5344159,"type":"-"},
{"account_id":"fffdc68f-e5c3-4ab7-a0fc-23733c6e909f","amount":"$5.63","description":"Quo Lux","date":"8/29/2021","location_latitude":-9.771006,"location_longitude":-76.6613239,"type":"-"},
{"account_id":"7fcf9335-d179-465a-8f1a-ef3f68c97bd8","amount":"$5.43","description":"Sub-Ex","date":"12/9/2024","location_latitude":41.4633308,"location_longitude":21.0495247,"type":"+"},
{"account_id":"aa8516e1-ebdf-4d72-b651-3d1a3fca3275","amount":"$1.33","description":"Zamit","date":"4/15/2023","location_latitude":58.1456847,"location_longitude":12.1337569,"type":"-"},
{"account_id":"d62e19d5-df87-40fb-ae2b-d77342620c80","amount":"$6.29","description":"Rank","date":"4/13/2022","location_latitude":-3.6846513,"location_longitude":13.3500652,"type":"+"},
{"account_id":"890643c6-ca4d-47ea-a3ce-c53a64608ba7","amount":"$1.22","description":"Overhold","date":"10/26/2021","location_latitude":14.8725628,"location_longitude":38.8100855,"type":"+"},
{"account_id":"20382b16-19d1-439d-af42-c05e0100c06e","amount":"$8.70","description":"Subin","date":"3/4/2022","location_latitude":37.2284208,"location_longitude":21.6360085,"type":"-"},
{"account_id":"145a358d-7e13-4065-8761-5aff149c9195","amount":"$2.86","description":"Toughjoyfax","date":"8/3/2023","location_latitude":-7.3485439,"location_longitude":112.7699403,"type":"-"},
{"account_id":"216b93c6-525a-4c74-ba09-2efea1df84aa","amount":"$7.67","description":"Stronghold","date":"11/30/2021","location_latitude":41.4112348,"location_longitude":-7.9526065,"type":"-"},
{"account_id":"1e82ffbb-de2b-428f-a939-d9a421bb2023","amount":"$5.85","description":"Flexidy","date":"6/9/2019","location_latitude":1.5316053,"location_longitude":-77.4128193,"type":"+"},
{"account_id":"d62e19d5-df87-40fb-ae2b-d77342620c80","amount":"$7.14","description":"Bitwolf","date":"9/2/2024","location_latitude":55.6833424,"location_longitude":12.5616448,"type":"-"},
{"account_id":"b138f9fe-4385-4675-a677-2640fb09a4ae","amount":"$5.17","description":"Prodder","date":"1/14/2024","location_latitude":"53.9854","location_longitude":"30.36","type":"+"},
{"account_id":"5f4bbec3-3bf8-4215-b8b9-d7ea1be10f72","amount":"$1.07","description":"Y-Solowarm","date":"5/20/2019","location_latitude":36.7203407,"location_longitude":-4.419495,"type":"-"},
{"account_id":"905bed78-1d7c-4703-b66d-8162992a5023","amount":"$2.86","description":"Holdlamis","date":"1/14/2018","location_latitude":26.085124,"location_longitude":119.2972038,"type":"-"},
{"account_id":"d62e19d5-df87-40fb-ae2b-d77342620c80","amount":"$9.27","description":"Otcom","date":"6/5/2019","location_latitude":-8.1094987,"location_longitude":115.1618941,"type":"-"},
{"account_id":"20382b16-19d1-439d-af42-c05e0100c06e","amount":"$6.94","description":"Toughjoyfax","date":"3/18/2020","location_latitude":-6.9092185,"location_longitude":107.6426797,"type":"+"},
{"account_id":"81f19fbd-0c0a-441e-bbba-2ca5ecd5aae9","amount":"$7.38","description":"Zathin","date":"7/18/2022","location_latitude":4.2904513,"location_longitude":9.4144962,"type":"-"},
{"account_id":"905bed78-1d7c-4703-b66d-8162992a5023","amount":"$7.12","description":"Konklux","date":"9/4/2023","location_latitude":51.4197881,"location_longitude":19.6764505,"type":"+"},
{"account_id":"5cb0c096-80b7-47d9-8f26-c8e4d514452a","amount":"$8.29","description":"Trippledex","date":"5/23/2022","location_latitude":3.8291336,"location_longitude":-74.8039205,"type":"+"},
{"account_id":"81f19fbd-0c0a-441e-bbba-2ca5ecd5aae9","amount":"$6.61","description":"Biodex","date":"3/18/2021","location_latitude":-16.4708895,"location_longitude":46.7164256,"type":"+"},
{"account_id":"9fe692c0-3a96-4428-bbae-e73120632cd6","amount":"$2.76","description":"Stronghold","date":"9/3/2024","location_latitude":13.8492501,"location_longitude":121.1450484,"type":"-"},
{"account_id":"d62e19d5-df87-40fb-ae2b-d77342620c80","amount":"$6.14","description":"Zathin","date":"2/4/2022","location_latitude":18.0735299,"location_longitude":-15.9582372,"type":"-"},
{"account_id":"d62e19d5-df87-40fb-ae2b-d77342620c80","amount":"$5.83","description":"Overhold","date":"12/2/2019","location_latitude":33.5885186,"location_longitude":130.3392896,"type":"+"},
{"account_id":"81f19fbd-0c0a-441e-bbba-2ca5ecd5aae9","amount":"$8.37","description":"Prodder","date":"5/6/2023","location_latitude":50.9422707,"location_longitude":37.8024687,"type":"-"},
{"account_id":"4e898bdf-95c1-4e64-92c5-145f5bf66903","amount":"$6.04","description":"Veribet","date":"11/10/2024","location_latitude":41.3357664,"location_longitude":-7.5894479,"type":"+"},
{"account_id":"20382b16-19d1-439d-af42-c05e0100c06e","amount":"$8.21","description":"Bytecard","date":"12/27/2022","location_latitude":47.3036891,"location_longitude":2.6981496,"type":"-"},
{"account_id":"a5889e47-bf85-4ef2-8c45-ff9e27505e45","amount":"$0.80","description":"Duobam","date":"11/26/2020","location_latitude":30.271087,"location_longitude":120.166448,"type":"-"},
{"account_id":"22807c39-632d-4df4-83c9-3e088d2ab98b","amount":"$8.35","description":"Zaam-Dox","date":"11/30/2022","location_latitude":60.9842542,"location_longitude":72.6081038,"type":"-"},
{"account_id":"04a4aac6-70d7-446d-8125-b301c8d56e6d","amount":"$6.38","description":"Voltsillam","date":"2/11/2019","location_latitude":48.1285846,"location_longitude":38.0317812,"type":"-"},
{"account_id":"a5889e47-bf85-4ef2-8c45-ff9e27505e45","amount":"$8.54","description":"Cardguard","date":"5/29/2020","location_latitude":47.6632745,"location_longitude":1.206057,"type":"+"},
{"account_id":"30e6d998-6bd5-4c9c-ac93-86a43c94fd47","amount":"$9.25","description":"Zaam-Dox","date":"9/3/2023","location_latitude":24.625561,"location_longitude":118.431541,"type":"-"},
{"account_id":"d62e19d5-df87-40fb-ae2b-d77342620c80","amount":"$5.61","description":"Flexidy","date":"8/20/2021","location_latitude":9.0578504,"location_longitude":-72.233418,"type":"+"},
{"account_id":"905bed78-1d7c-4703-b66d-8162992a5023","amount":"$9.55","description":"Solarbreeze","date":"5/24/2019","location_latitude":8.287423,"location_longitude":100.1927389,"type":"-"},
{"account_id":"905bed78-1d7c-4703-b66d-8162992a5023","amount":"$3.58","description":"Home Ing","date":"3/1/2022","location_latitude":-18.9549753,"location_longitude":49.1082407,"type":"-"},
{"account_id":"216b93c6-525a-4c74-ba09-2efea1df84aa","amount":"$1.56","description":"Zontrax","date":"9/27/2020","location_latitude":-6.267562,"location_longitude":106.6143944,"type":"+"},
{"account_id":"62a05934-b9c6-4818-ad49-0b8f0ae14f91","amount":"$0.33","description":"Mat Lam Tam","date":"3/16/2020","location_latitude":51.8761178,"location_longitude":104.8423232,"type":"-"},
{"account_id":"81f19fbd-0c0a-441e-bbba-2ca5ecd5aae9","amount":"$8.49","description":"Redhold","date":"2/24/2023","location_latitude":43.6953508,"location_longitude":7.2559678,"type":"-"},
{"account_id":"fb1132ee-e83b-4960-97c7-1505df92e413","amount":"$3.79","description":"Cardguard","date":"3/1/2023","location_latitude":"-8.1081","location_longitude":"113.7993","type":"-"},
{"account_id":"a5889e47-bf85-4ef2-8c45-ff9e27505e45","amount":"$3.62","description":"Greenlam","date":"5/23/2023","location_latitude":27.218444,"location_longitude":116.525725,"type":"+"},
{"account_id":"62a05934-b9c6-4818-ad49-0b8f0ae14f91","amount":"$3.29","description":"Ronstring","date":"7/5/2019","location_latitude":-15.7451604,"location_longitude":-70.05478,"type":"+"},
{"account_id":"5f4bbec3-3bf8-4215-b8b9-d7ea1be10f72","amount":"$5.99","description":"Greenlam","date":"1/5/2020","location_latitude":49.6951686,"location_longitude":15.2777272,"type":"-"},
{"account_id":"81f19fbd-0c0a-441e-bbba-2ca5ecd5aae9","amount":"$3.39","description":"Vagram","date":"1/29/2018","location_latitude":43.2220146,"location_longitude":76.8512485,"type":"+"},
{"account_id":"5f4bbec3-3bf8-4215-b8b9-d7ea1be10f72","amount":"$4.39","description":"Tampflex","date":"5/20/2020","location_latitude":26.7271466,"location_longitude":85.9406745,"type":"-"},
{"account_id":"62a05934-b9c6-4818-ad49-0b8f0ae14f91","amount":"$8.29","description":"Bigtax","date":"2/14/2024","location_latitude":14.7121689,"location_longitude":-88.0876336,"type":"+"},
{"account_id":"a5889e47-bf85-4ef2-8c45-ff9e27505e45","amount":"$8.53","description":"Tempsoft","date":"10/23/2023","location_latitude":-2.9001285,"location_longitude":-79.0058965,"type":"-"},
{"account_id":"7d76b92a-1cfa-466d-8313-68ec8145613c","amount":"$5.96","description":"Treeflex","date":"6/3/2024","location_latitude":38.7043276,"location_longitude":-9.2315277,"type":"-"},
{"account_id":"04a4aac6-70d7-446d-8125-b301c8d56e6d","amount":"$8.74","description":"Sonsing","date":"1/21/2018","location_latitude":"47.07472","location_longitude":"35.14444","type":"-"},
{"account_id":"7fcf9335-d179-465a-8f1a-ef3f68c97bd8","amount":"$2.15","description":"Greenlam","date":"6/17/2023","location_latitude":27.713777,"location_longitude":112.347696,"type":"+"},
{"account_id":"216b93c6-525a-4c74-ba09-2efea1df84aa","amount":"$5.45","description":"Toughjoyfax","date":"1/28/2020","location_latitude":59.130725,"location_longitude":10.2266452,"type":"-"},
{"account_id":"1e82ffbb-de2b-428f-a939-d9a421bb2023","amount":"$8.20","description":"Bigtax","date":"7/7/2020","location_latitude":43.1298714,"location_longitude":45.5357156,"type":"-"},
{"account_id":"9fe692c0-3a96-4428-bbae-e73120632cd6","amount":"$6.48","description":"Keylex","date":"10/21/2022","location_latitude":40.2365225,"location_longitude":-8.5110798,"type":"+"},
{"account_id":"04a4aac6-70d7-446d-8125-b301c8d56e6d","amount":"$6.86","description":"Bitchip","date":"8/16/2020","location_latitude":40.6,"location_longitude":-75.47,"type":"+"},
{"account_id":"890643c6-ca4d-47ea-a3ce-c53a64608ba7","amount":"$3.22","description":"Bamity","date":"5/5/2024","location_latitude":-33.8603461,"location_longitude":-55.5441311,"type":"+"},
{"account_id":"7d76b92a-1cfa-466d-8313-68ec8145613c","amount":"$3.41","description":"Sub-Ex","date":"2/26/2024","location_latitude":-7.2026914,"location_longitude":108.1013637,"type":"+"},
{"account_id":"62a05934-b9c6-4818-ad49-0b8f0ae14f91","amount":"$9.38","description":"Alphazap","date":"10/5/2020","location_latitude":19.307033,"location_longitude":-99.1675842,"type":"+"},
{"account_id":"5cb0c096-80b7-47d9-8f26-c8e4d514452a","amount":"$8.85","description":"Overhold","date":"10/4/2024","location_latitude":62.679165,"location_longitude":131.152863,"type":"+"},
{"account_id":"22807c39-632d-4df4-83c9-3e088d2ab98b","amount":"$1.26","description":"Cardguard","date":"6/17/2023","location_latitude":0.0851034,"location_longitude":-76.8940156,"type":"-"},
{"account_id":"81f19fbd-0c0a-441e-bbba-2ca5ecd5aae9","amount":"$2.32","description":"Fix San","date":"8/1/2020","location_latitude":14.5769063,"location_longitude":120.9959319,"type":"-"},
{"account_id":"81f19fbd-0c0a-441e-bbba-2ca5ecd5aae9","amount":"$3.62","description":"Home Ing","date":"3/23/2022","location_latitude":-11.24674,"location_longitude":-76.661598,"type":"-"},
{"account_id":"d62e19d5-df87-40fb-ae2b-d77342620c80","amount":"$1.00","description":"Bamity","date":"5/9/2021","location_latitude":23.561222,"location_longitude":116.074362,"type":"-"},
{"account_id":"7fcf9335-d179-465a-8f1a-ef3f68c97bd8","amount":"$1.26","description":"Tempsoft","date":"2/28/2022","location_latitude":34.675197,"location_longitude":103.498609,"type":"+"},
{"account_id":"b138f9fe-4385-4675-a677-2640fb09a4ae","amount":"$1.70","description":"Tin","date":"8/21/2019","location_latitude":29.5769271,"location_longitude":-9.0267076,"type":"+"},
{"account_id":"a5889e47-bf85-4ef2-8c45-ff9e27505e45","amount":"$7.69","description":"Duobam","date":"4/4/2021","location_latitude":36.097577,"location_longitude":114.392392,"type":"+"},
{"account_id":"fb1132ee-e83b-4960-97c7-1505df92e413","amount":"$9.37","description":"Sonsing","date":"8/27/2021","location_latitude":16.2584167,"location_longitude":97.725376,"type":"+"},
{"account_id":"905bed78-1d7c-4703-b66d-8162992a5023","amount":"$1.19","description":"Treeflex","date":"6/15/2020","location_latitude":41.055232,"location_longitude":19.9537797,"type":"-"},
{"account_id":"890643c6-ca4d-47ea-a3ce-c53a64608ba7","amount":"$2.85","description":"Zontrax","date":"10/24/2022","location_latitude":26.05547,"location_longitude":119.239406,"type":"-"},
{"account_id":"fffdc68f-e5c3-4ab7-a0fc-23733c6e909f","amount":"$5.42","description":"Greenlam","date":"6/26/2020","location_latitude":54.2637785,"location_longitude":40.9511355,"type":"+"},
{"account_id":"04a4aac6-70d7-446d-8125-b301c8d56e6d","amount":"$2.18","description":"Bamity","date":"3/19/2019","location_latitude":55.2519048,"location_longitude":52.5882232,"type":"+"},
{"account_id":"fffdc68f-e5c3-4ab7-a0fc-23733c6e909f","amount":"$0.48","description":"Lotlux","date":"9/12/2023","location_latitude":29.31718,"location_longitude":89.054565,"type":"-"},
{"account_id":"d62e19d5-df87-40fb-ae2b-d77342620c80","amount":"$5.10","description":"Solarbreeze","date":"10/23/2021","location_latitude":35.3292328,"location_longitude":24.3359662,"type":"+"},
{"account_id":"62a05934-b9c6-4818-ad49-0b8f0ae14f91","amount":"$8.54","description":"Cardify","date":"2/26/2019","location_latitude":12.7854969,"location_longitude":45.0186548,"type":"+"},
{"account_id":"20382b16-19d1-439d-af42-c05e0100c06e","amount":"$0.46","description":"Bamity","date":"11/11/2020","location_latitude":47.0179158,"location_longitude":-68.1430518,"type":"-"},
{"account_id":"","amount":"$9.56","description":"Voltsillam","date":"7/10/2018","location_latitude":"44.18333","location_longitude":"15.65","type":"+"},
{"account_id":"a5889e47-bf85-4ef2-8c45-ff9e27505e45","amount":"$1.34","description":"Tin","date":"12/16/2023","location_latitude":56.4441479,"location_longitude":52.2293876,"type":"-"},
{"account_id":"5f4bbec3-3bf8-4215-b8b9-d7ea1be10f72","amount":"$5.25","description":"Fixflex","date":"8/3/2018","location_latitude":61.5656107,"location_longitude":25.1814985,"type":"+"},
{"account_id":"890643c6-ca4d-47ea-a3ce-c53a64608ba7","amount":"$0.10","description":"Cardguard","date":"9/18/2024","location_latitude":-19.3298294,"location_longitude":47.6849007,"type":"-"},
{"account_id":"30e6d998-6bd5-4c9c-ac93-86a43c94fd47","amount":"$4.71","description":"Sub-Ex","date":"11/2/2024","location_latitude":43.5661719,"location_longitude":43.4895256,"type":"-"},
{"account_id":"7fcf9335-d179-465a-8f1a-ef3f68c97bd8","amount":"$5.20","description":"Y-find","date":"2/22/2021","location_latitude":6.7703871,"location_longitude":8.9935558,"type":"-"},
{"account_id":"890643c6-ca4d-47ea-a3ce-c53a64608ba7","amount":"$9.07","description":"Voltsillam","date":"6/25/2020","location_latitude":38.0823988,"location_longitude":15.6383202,"type":"-"},
{"account_id":"22807c39-632d-4df4-83c9-3e088d2ab98b","amount":"$3.43","description":"Regrant","date":"8/24/2022","location_latitude":61.1006924,"location_longitude":10.4755594,"type":"+"},
{"account_id":"b40185b9-0127-484a-bd35-863a6ee85c60","amount":"$7.98","description":"Zontrax","date":"11/29/2019","location_latitude":40.316139,"location_longitude":115.545296,"type":"+"},
{"account_id":"","amount":"$8.79","description":"Toughjoyfax","date":"10/15/2019","location_latitude":38.9048517,"location_longitude":-94.6864991,"type":"-"},
{"account_id":"b138f9fe-4385-4675-a677-2640fb09a4ae","amount":"$8.29","description":"Matsoft","date":"1/8/2021","location_latitude":29.4315861,"location_longitude":106.912251,"type":"-"},
{"account_id":"5cb0c096-80b7-47d9-8f26-c8e4d514452a","amount":"$2.62","description":"Tin","date":"5/14/2022","location_latitude":"10.425","location_longitude":"124.0005","type":"-"},
{"account_id":"a5889e47-bf85-4ef2-8c45-ff9e27505e45","amount":"$0.86","description":"Tres-Zap","date":"9/1/2019","location_latitude":45.8266432,"location_longitude":20.5937585,"type":"-"},
{"account_id":"5f4bbec3-3bf8-4215-b8b9-d7ea1be10f72","amount":"$2.49","description":"Opela","date":"8/21/2020","location_latitude":-0.2182982,"location_longitude":33.5728027,"type":"+"},
{"account_id":"fb1132ee-e83b-4960-97c7-1505df92e413","amount":"$6.44","description":"Mat Lam Tam","date":"3/28/2023","location_latitude":50.8305647,"location_longitude":33.8815261,"type":"-"},
{"account_id":"22807c39-632d-4df4-83c9-3e088d2ab98b","amount":"$0.95","description":"Zathin","date":"6/24/2020","location_latitude":-8.7611605,"location_longitude":-63.9004303,"type":"+"},
{"account_id":"b40185b9-0127-484a-bd35-863a6ee85c60","amount":"$6.37","description":"Cardify","date":"4/9/2022","location_latitude":52.1260857,"location_longitude":19.0103213,"type":"-"},
{"account_id":"9fe692c0-3a96-4428-bbae-e73120632cd6","amount":"$2.83","description":"Cookley","date":"5/4/2023","location_latitude":"-9.4542","location_longitude":"119.2271","type":"+"},
{"account_id":"b138f9fe-4385-4675-a677-2640fb09a4ae","amount":"$7.56","description":"Vagram","date":"11/4/2020","location_latitude":"39.43806","location_longitude":"127.24306","type":"+"},
{"account_id":"d62e19d5-df87-40fb-ae2b-d77342620c80","amount":"$1.12","description":"Tres-Zap","date":"8/31/2021","location_latitude":-27.7557025,"location_longitude":24.8270745,"type":"+"},
{"account_id":"5cb0c096-80b7-47d9-8f26-c8e4d514452a","amount":"$0.88","description":"Solarbreeze","date":"6/13/2024","location_latitude":-8.2,"location_longitude":114.5,"type":"-"},
{"account_id":"d62e19d5-df87-40fb-ae2b-d77342620c80","amount":"$7.49","description":"Lotstring","date":"6/29/2020","location_latitude":-8.6247652,"location_longitude":118.9907046,"type":"+"},
{"account_id":"7fcf9335-d179-465a-8f1a-ef3f68c97bd8","amount":"$3.36","description":"Opela","date":"10/29/2021","location_latitude":9.159579,"location_longitude":118.1437875,"type":"-"},
{"account_id":"62a05934-b9c6-4818-ad49-0b8f0ae14f91","amount":"$2.83","description":"Lotstring","date":"6/10/2021","location_latitude":27.955261,"location_longitude":112.497228,"type":"-"},
{"account_id":"145a358d-7e13-4065-8761-5aff149c9195","amount":"$6.89","description":"Zathin","date":"12/22/2020","location_latitude":62.0587526,"location_longitude":129.7283548,"type":"-"},
{"account_id":"9fe692c0-3a96-4428-bbae-e73120632cd6","amount":"$8.17","description":"Keylex","date":"2/26/2020","location_latitude":30.169665,"location_longitude":121.266579,"type":"+"},
{"account_id":"145a358d-7e13-4065-8761-5aff149c9195","amount":"$6.83","description":"Tres-Zap","date":"12/20/2019","location_latitude":-6.6111441,"location_longitude":106.8473377,"type":"+"},
{"account_id":"22807c39-632d-4df4-83c9-3e088d2ab98b","amount":"$9.14","description":"Kanlam","date":"9/24/2024","location_latitude":51.0722125,"location_longitude":132.6007578,"type":"+"},
{"account_id":"d62e19d5-df87-40fb-ae2b-d77342620c80","amount":"$4.81","description":"Asoka","date":"9/27/2022","location_latitude":40.508339,"location_longitude":79.047291,"type":"-"},
{"account_id":"22807c39-632d-4df4-83c9-3e088d2ab98b","amount":"$5.26","description":"Alphazap","date":"8/7/2021","location_latitude":7.3889508,"location_longitude":-80.4215246,"type":"-"},
{"account_id":"fffdc68f-e5c3-4ab7-a0fc-23733c6e909f","amount":"$3.07","description":"Domainer","date":"7/28/2019","location_latitude":59.9152119,"location_longitude":10.6341605,"type":"+"},
{"account_id":"7fcf9335-d179-465a-8f1a-ef3f68c97bd8","amount":"$2.12","description":"Sub-Ex","date":"10/16/2022","location_latitude":46.228975,"location_longitude":125.341286,"type":"-"},
{"account_id":"a5889e47-bf85-4ef2-8c45-ff9e27505e45","amount":"$5.00","description":"Veribet","date":"11/1/2024","location_latitude":-6.7796462,"location_longitude":107.9276672,"type":"-"},
{"account_id":"5cb0c096-80b7-47d9-8f26-c8e4d514452a","amount":"$0.19","description":"Flexidy","date":"5/20/2020","location_latitude":-8.3833419,"location_longitude":118.7256312,"type":"+"},
{"account_id":"aa8516e1-ebdf-4d72-b651-3d1a3fca3275","amount":"$7.45","description":"Veribet","date":"3/25/2020","location_latitude":-7.5450262,"location_longitude":111.6556388,"type":"+"},
{"account_id":"b138f9fe-4385-4675-a677-2640fb09a4ae","amount":"$9.89","description":"Quo Lux","date":"10/18/2024","location_latitude":13.7192462,"location_longitude":100.5583692,"type":"+"},
{"account_id":"fb1132ee-e83b-4960-97c7-1505df92e413","amount":"$1.31","description":"Redhold","date":"5/8/2019","location_latitude":13.2570942,"location_longitude":-61.125756,"type":"-"},
{"account_id":"fffdc68f-e5c3-4ab7-a0fc-23733c6e909f","amount":"$3.74","description":"Home Ing","date":"7/18/2022","location_latitude":51.4393178,"location_longitude":18.3993464,"type":"+"},
{"account_id":"fb1132ee-e83b-4960-97c7-1505df92e413","amount":"$9.29","description":"Andalax","date":"8/11/2018","location_latitude":38.9048517,"location_longitude":-94.6864991,"type":"-"},
{"account_id":"81f19fbd-0c0a-441e-bbba-2ca5ecd5aae9","amount":"$4.22","description":"Alpha","date":"5/25/2020","location_latitude":26.7957017,"location_longitude":86.2970998,"type":"+"},
{"account_id":"9fe692c0-3a96-4428-bbae-e73120632cd6","amount":"$6.03","description":"Home Ing","date":"9/13/2019","location_latitude":16.7903346,"location_longitude":120.8249088,"type":"+"},
{"account_id":"7fcf9335-d179-465a-8f1a-ef3f68c97bd8","amount":"$3.82","description":"Fintone","date":"10/20/2020","location_latitude":30.628795,"location_longitude":104.0436982,"type":"-"},
{"account_id":"d62e19d5-df87-40fb-ae2b-d77342620c80","amount":"$5.24","description":"Sonair","date":"3/28/2021","location_latitude":9.2718747,"location_longitude":-75.4636031,"type":"+"},
{"account_id":"81f19fbd-0c0a-441e-bbba-2ca5ecd5aae9","amount":"$4.66","description":"Prodder","date":"2/7/2024","location_latitude":-24.5253253,"location_longitude":-56.4076059,"type":"-"},
{"account_id":"a5889e47-bf85-4ef2-8c45-ff9e27505e45","amount":"$1.58","description":"Hatity","date":"8/22/2018","location_latitude":35.2593608,"location_longitude":36.3768911,"type":"+"},
{"account_id":"905bed78-1d7c-4703-b66d-8162992a5023","amount":"$2.15","description":"Vagram","date":"4/11/2024","location_latitude":50.5193689,"location_longitude":41.6704075,"type":"+"},
{"account_id":"5f4bbec3-3bf8-4215-b8b9-d7ea1be10f72","amount":"$0.14","description":"Zamit","date":"6/28/2022","location_latitude":-33.6740514,"location_longitude":-54.2101894,"type":"-"},
{"account_id":"7fcf9335-d179-465a-8f1a-ef3f68c97bd8","amount":"$5.29","description":"Solarbreeze","date":"9/8/2020","location_latitude":-26.5642351,"location_longitude":18.1310083,"type":"+"},
{"account_id":"5cb0c096-80b7-47d9-8f26-c8e4d514452a","amount":"$7.49","description":"Zathin","date":"7/7/2019","location_latitude":"-8.2219","location_longitude":"111.9507","type":"+"},
{"account_id":"aa8516e1-ebdf-4d72-b651-3d1a3fca3275","amount":"$5.63","description":"Lotlux","date":"8/20/2019","location_latitude":50.8853797,"location_longitude":21.8569158,"type":"-"},
{"account_id":"5cb0c096-80b7-47d9-8f26-c8e4d514452a","amount":"$8.71","description":"Flexidy","date":"2/8/2020","location_latitude":20.9414842,"location_longitude":105.9569025,"type":"-"},
{"account_id":"fffdc68f-e5c3-4ab7-a0fc-23733c6e909f","amount":"$3.50","description":"Overhold","date":"5/15/2023","location_latitude":-23.2218772,"location_longitude":-44.7235076,"type":"+"},
{"account_id":"fffdc68f-e5c3-4ab7-a0fc-23733c6e909f","amount":"$4.15","description":"Job","date":"1/18/2024","location_latitude":7.916433,"location_longitude":124.200182,"type":"+"},
{"account_id":"aa8516e1-ebdf-4d72-b651-3d1a3fca3275","amount":"$4.30","description":"Overhold","date":"10/29/2020","location_latitude":32.625478,"location_longitude":116.999932,"type":"-"},
{"account_id":"4e898bdf-95c1-4e64-92c5-145f5bf66903","amount":"$6.46","description":"Pannier","date":"11/24/2018","location_latitude":8.5243626,"location_longitude":124.757617,"type":"-"},
{"account_id":"216b93c6-525a-4c74-ba09-2efea1df84aa","amount":"$5.47","description":"Ronstring","date":"8/20/2018","location_latitude":36.025609,"location_longitude":-78.9853813,"type":"-"},
{"account_id":"1e82ffbb-de2b-428f-a939-d9a421bb2023","amount":"$5.62","description":"Sonsing","date":"1/20/2021","location_latitude":51.7300614,"location_longitude":21.9829204,"type":"+"},
{"account_id":"7d76b92a-1cfa-466d-8313-68ec8145613c","amount":"$4.63","description":"Bitchip","date":"7/10/2021","location_latitude":41.1155359,"location_longitude":70.1039032,"type":"-"},
{"account_id":"216b93c6-525a-4c74-ba09-2efea1df84aa","amount":"$5.99","description":"Y-find","date":"4/10/2021","location_latitude":19.4194815,"location_longitude":-99.1894558,"type":"-"},
{"account_id":"216b93c6-525a-4c74-ba09-2efea1df84aa","amount":"$2.78","description":"Y-find","date":"7/6/2018","location_latitude":52.1734345,"location_longitude":19.6947536,"type":"-"},
{"account_id":"fb1132ee-e83b-4960-97c7-1505df92e413","amount":"$9.16","description":"Sub-Ex","date":"6/12/2018","location_latitude":16.67064,"location_longitude":121.71581,"type":"-"},
{"account_id":"62a05934-b9c6-4818-ad49-0b8f0ae14f91","amount":"$8.79","description":"Stronghold","date":"12/22/2024","location_latitude":52.6325793,"location_longitude":4.7239896,"type":"+"},
{"account_id":"fffdc68f-e5c3-4ab7-a0fc-23733c6e909f","amount":"$6.85","description":"Overhold","date":"9/26/2018","location_latitude":14.5042512,"location_longitude":101.948349,"type":"-"},
{"account_id":"30e6d998-6bd5-4c9c-ac93-86a43c94fd47","amount":"$2.92","description":"Tampflex","date":"12/9/2021","location_latitude":"40.81609","location_longitude":"140.37539","type":"-"},
{"account_id":"b138f9fe-4385-4675-a677-2640fb09a4ae","amount":"$4.57","description":"Holdlamis","date":"6/30/2019","location_latitude":48.0201627,"location_longitude":38.6545257,"type":"+"},
{"account_id":"7d76b92a-1cfa-466d-8313-68ec8145613c","amount":"$9.15","description":"Alphazap","date":"12/12/2020","location_latitude":30.7298739,"location_longitude":-9.2162139,"type":"-"},
{"account_id":"22807c39-632d-4df4-83c9-3e088d2ab98b","amount":"$8.49","description":"Pannier","date":"5/6/2024","location_latitude":57.5637205,"location_longitude":48.7739491,"type":"-"},
{"account_id":"04a4aac6-70d7-446d-8125-b301c8d56e6d","amount":"$0.18","description":"Lotstring","date":"12/13/2023","location_latitude":51.27304,"location_longitude":16.3653,"type":"-"},
{"account_id":"216b93c6-525a-4c74-ba09-2efea1df84aa","amount":"$2.13","description":"Tres-Zap","date":"4/2/2018","location_latitude":-13.608056,"location_longitude":-73.343889,"type":"+"},
{"account_id":"905bed78-1d7c-4703-b66d-8162992a5023","amount":"$6.70","description":"Greenlam","date":"8/25/2024","location_latitude":-8.7367925,"location_longitude":116.4872482,"type":"-"},
{"account_id":"7fcf9335-d179-465a-8f1a-ef3f68c97bd8","amount":"$1.20","description":"Konklux","date":"10/26/2019","location_latitude":40.4095521,"location_longitude":49.7653156,"type":"-"},
{"account_id":"216b93c6-525a-4c74-ba09-2efea1df84aa","amount":"$2.64","description":"Y-Solowarm","date":"2/29/2020","location_latitude":45.6128697,"location_longitude":15.4778574,"type":"+"},
{"account_id":"fffdc68f-e5c3-4ab7-a0fc-23733c6e909f","amount":"$3.99","description":"Bamity","date":"2/24/2019","location_latitude":43.7979981,"location_longitude":25.9053209,"type":"-"},
{"account_id":"04a4aac6-70d7-446d-8125-b301c8d56e6d","amount":"$1.51","description":"Fix San","date":"6/23/2019","location_latitude":16.167313,"location_longitude":99.950724,"type":"-"},
{"account_id":"9fe692c0-3a96-4428-bbae-e73120632cd6","amount":"$7.44","description":"Toughjoyfax","date":"8/12/2018","location_latitude":37.467686,"location_longitude":121.153674,"type":"+"},
{"account_id":"81f19fbd-0c0a-441e-bbba-2ca5ecd5aae9","amount":"$9.39","description":"Bytecard","date":"3/3/2019","location_latitude":-23.4849456,"location_longitude":-46.3494828,"type":"-"},
{"account_id":"fb1132ee-e83b-4960-97c7-1505df92e413","amount":"$8.04","description":"Flexidy","date":"3/18/2020","location_latitude":12.6679167,"location_longitude":123.9881642,"type":"+"},
{"account_id":"216b93c6-525a-4c74-ba09-2efea1df84aa","amount":"$5.36","description":"Overhold","date":"8/1/2023","location_latitude":53.149977,"location_longitude":140.6634789,"type":"+"},
{"account_id":"9fe692c0-3a96-4428-bbae-e73120632cd6","amount":"$1.67","description":"Voltsillam","date":"5/9/2021","location_latitude":48.418023,"location_longitude":23.7371118,"type":"-"},
{"account_id":"5f4bbec3-3bf8-4215-b8b9-d7ea1be10f72","amount":"$2.98","description":"Stim","date":"9/22/2023","location_latitude":15.5653934,"location_longitude":120.6147766,"type":"-"},
{"account_id":"","amount":"$8.89","description":"Hatity","date":"3/16/2024","location_latitude":33.969218,"location_longitude":99.900904,"type":"+"},
{"account_id":"890643c6-ca4d-47ea-a3ce-c53a64608ba7","amount":"$6.07","description":"Flexidy","date":"9/27/2020","location_latitude":41.430751,"location_longitude":-8.6435589,"type":"-"},
{"account_id":"905bed78-1d7c-4703-b66d-8162992a5023","amount":"$4.20","description":"Andalax","date":"2/28/2024","location_latitude":49.6321945,"location_longitude":16.7112603,"type":"-"},
{"account_id":"62a05934-b9c6-4818-ad49-0b8f0ae14f91","amount":"$8.92","description":"Zamit","date":"11/25/2019","location_latitude":19.2030655,"location_longitude":-99.5478784,"type":"-"},
{"account_id":"fb1132ee-e83b-4960-97c7-1505df92e413","amount":"$6.60","description":"Tin","date":"4/10/2019","location_latitude":35.319084,"location_longitude":114.540858,"type":"+"},
{"account_id":"81f19fbd-0c0a-441e-bbba-2ca5ecd5aae9","amount":"$8.82","description":"Temp","date":"1/16/2022","location_latitude":44.9993113,"location_longitude":19.9820405,"type":"+"},
{"account_id":"7d76b92a-1cfa-466d-8313-68ec8145613c","amount":"$6.26","description":"Subin","date":"11/11/2024","location_latitude":31.221062,"location_longitude":121.436555,"type":"+"},
{"account_id":"5cb0c096-80b7-47d9-8f26-c8e4d514452a","amount":"$6.05","description":"Cookley","date":"3/10/2021","location_latitude":27.352673,"location_longitude":109.174932,"type":"-"},
{"account_id":"7d76b92a-1cfa-466d-8313-68ec8145613c","amount":"$2.61","description":"Quo Lux","date":"5/21/2021","location_latitude":26.6274775,"location_longitude":49.9161886,"type":"-"},
{"account_id":"9fe692c0-3a96-4428-bbae-e73120632cd6","amount":"$2.51","description":"Domainer","date":"5/22/2019","location_latitude":-10.3327498,"location_longitude":-36.8788381,"type":"-"},
{"account_id":"7d76b92a-1cfa-466d-8313-68ec8145613c","amount":"$5.25","description":"Alphazap","date":"11/26/2021","location_latitude":30.260023,"location_longitude":120.205192,"type":"+"},
{"account_id":"7fcf9335-d179-465a-8f1a-ef3f68c97bd8","amount":"$1.86","description":"Tin","date":"4/6/2018","location_latitude":8.1113884,"location_longitude":123.8961588,"type":"+"},
{"account_id":"81f19fbd-0c0a-441e-bbba-2ca5ecd5aae9","amount":"$5.81","description":"Trippledex","date":"5/6/2019","location_latitude":-15.7994139,"location_longitude":-47.9222179,"type":"-"},
{"account_id":"890643c6-ca4d-47ea-a3ce-c53a64608ba7","amount":"$4.88","description":"Bigtax","date":"8/1/2022","location_latitude":39.989836,"location_longitude":117.274909,"type":"+"},
{"account_id":"aa8516e1-ebdf-4d72-b651-3d1a3fca3275","amount":"$0.95","description":"Zaam-Dox","date":"12/3/2018","location_latitude":35.2901,"location_longitude":116.317369,"type":"+"},
{"account_id":"","amount":"$9.02","description":"Fix San","date":"6/21/2019","location_latitude":30.181472,"location_longitude":118.512944,"type":"+"},
{"account_id":"145a358d-7e13-4065-8761-5aff149c9195","amount":"$7.38","description":"Zathin","date":"10/17/2021","location_latitude":14.136844,"location_longitude":-90.008975,"type":"-"},
{"account_id":"145a358d-7e13-4065-8761-5aff149c9195","amount":"$8.17","description":"Cookley","date":"9/10/2019","location_latitude":26.641315,"location_longitude":100.222545,"type":"+"},
{"account_id":"7d76b92a-1cfa-466d-8313-68ec8145613c","amount":"$1.71","description":"Bigtax","date":"5/19/2024","location_latitude":48.2044234,"location_longitude":5.942257,"type":"-"},
{"account_id":"145a358d-7e13-4065-8761-5aff149c9195","amount":"$6.65","description":"Namfix","date":"12/2/2018","location_latitude":38.9732991,"location_longitude":-9.3965062,"type":"-"},
{"account_id":"aa8516e1-ebdf-4d72-b651-3d1a3fca3275","amount":"$2.88","description":"Bitchip","date":"8/27/2023","location_latitude":34.639007,"location_longitude":104.450091,"type":"+"},
{"account_id":"81f19fbd-0c0a-441e-bbba-2ca5ecd5aae9","amount":"$0.06","description":"Redhold","date":"1/3/2024","location_latitude":-6.183459,"location_longitude":106.7647475,"type":"+"},
{"account_id":"5f4bbec3-3bf8-4215-b8b9-d7ea1be10f72","amount":"$1.15","description":"Gembucket","date":"4/21/2024","location_latitude":46.272878,"location_longitude":102.7790303,"type":"+"},
{"account_id":"890643c6-ca4d-47ea-a3ce-c53a64608ba7","amount":"$2.95","description":"Bamity","date":"11/11/2021","location_latitude":41.3410168,"location_longitude":-8.3169303,"type":"+"},
{"account_id":"62a05934-b9c6-4818-ad49-0b8f0ae14f91","amount":"$9.54","description":"Daltfresh","date":"5/30/2022","location_latitude":50.7036309,"location_longitude":18.995304,"type":"-"},
{"account_id":"4e898bdf-95c1-4e64-92c5-145f5bf66903","amount":"$7.10","description":"Otcom","date":"1/4/2019","location_latitude":57.7618574,"location_longitude":12.1347184,"type":"-"},
{"account_id":"5cb0c096-80b7-47d9-8f26-c8e4d514452a","amount":"$3.74","description":"Vagram","date":"11/2/2022","location_latitude":43.30706,"location_longitude":124.33539,"type":"+"},
{"account_id":"62a05934-b9c6-4818-ad49-0b8f0ae14f91","amount":"$6.26","description":"Lotlux","date":"8/19/2024","location_latitude":27.465141,"location_longitude":112.424933,"type":"+"},
{"account_id":"145a358d-7e13-4065-8761-5aff149c9195","amount":"$1.07","description":"Domainer","date":"1/26/2020","location_latitude":53.7776927,"location_longitude":15.8278204,"type":"-"},
{"account_id":"b138f9fe-4385-4675-a677-2640fb09a4ae","amount":"$2.73","description":"Holdlamis","date":"4/3/2019","location_latitude":43.7367435,"location_longitude":16.9849984,"type":"-"},
{"account_id":"5cb0c096-80b7-47d9-8f26-c8e4d514452a","amount":"$0.52","description":"Prodder","date":"6/18/2018","location_latitude":7.0063409,"location_longitude":-7.4868283,"type":"-"},
{"account_id":"905bed78-1d7c-4703-b66d-8162992a5023","amount":"$6.01","description":"Cookley","date":"8/4/2024","location_latitude":"5.21667","location_longitude":"96.28333","type":"+"},
{"account_id":"1e82ffbb-de2b-428f-a939-d9a421bb2023","amount":"$5.52","description":"Bamity","date":"8/23/2024","location_latitude":31.231546,"location_longitude":121.441639,"type":"+"},
{"account_id":"fb1132ee-e83b-4960-97c7-1505df92e413","amount":"$5.86","description":"Opela","date":"9/2/2022","location_latitude":38.408587,"location_longitude":28.385948,"type":"-"},
{"account_id":"22807c39-632d-4df4-83c9-3e088d2ab98b","amount":"$9.98","description":"Ventosanzap","date":"6/8/2024","location_latitude":59.1894804,"location_longitude":17.7558589,"type":"-"},
{"account_id":"20382b16-19d1-439d-af42-c05e0100c06e","amount":"$0.35","description":"Konklab","date":"7/23/2018","location_latitude":10.4009358,"location_longitude":106.22868,"type":"-"},
{"account_id":"","amount":"$2.19","description":"Fixflex","date":"11/20/2019","location_latitude":38.8828903,"location_longitude":-9.3711123,"type":"-"},
{"account_id":"fffdc68f-e5c3-4ab7-a0fc-23733c6e909f","amount":"$0.87","description":"Job","date":"4/30/2024","location_latitude":-0.819175,"location_longitude":120.167297,"type":"-"},
{"account_id":"30e6d998-6bd5-4c9c-ac93-86a43c94fd47","amount":"$7.76","description":"Tempsoft","date":"3/13/2018","location_latitude":42.3690023,"location_longitude":21.3709578,"type":"+"},
{"account_id":"aa8516e1-ebdf-4d72-b651-3d1a3fca3275","amount":"$0.44","description":"Bigtax","date":"8/2/2022","location_latitude":60.2880682,"location_longitude":24.8542939,"type":"-"},
{"account_id":"","amount":"$1.15","description":"Flowdesk","date":"5/10/2019","location_latitude":15.0312765,"location_longitude":-88.6458421,"type":"+"},
{"account_id":"81f19fbd-0c0a-441e-bbba-2ca5ecd5aae9","amount":"$5.92","description":"Trippledex","date":"4/4/2022","location_latitude":41.9391449,"location_longitude":12.532671,"type":"+"},
{"account_id":"7d76b92a-1cfa-466d-8313-68ec8145613c","amount":"$5.97","description":"Fixflex","date":"3/17/2019","location_latitude":60.4872057,"location_longitude":15.4102793,"type":"+"},
{"account_id":"a5889e47-bf85-4ef2-8c45-ff9e27505e45","amount":"$2.26","description":"Cookley","date":"1/24/2018","location_latitude":6.7518524,"location_longitude":4.8779969,"type":"-"},
{"account_id":"20382b16-19d1-439d-af42-c05e0100c06e","amount":"$6.34","description":"Subin","date":"9/3/2021","location_latitude":35.1595454,"location_longitude":126.8526012,"type":"-"},
{"account_id":"","amount":"$4.75","description":"Y-find","date":"12/24/2023","location_latitude":9.6164557,"location_longitude":-0.8246386,"type":"-"},
{"account_id":"a5889e47-bf85-4ef2-8c45-ff9e27505e45","amount":"$5.18","description":"Prodder","date":"8/16/2024","location_latitude":48.1288628,"location_longitude":11.5089621,"type":"-"},
{"account_id":"1e82ffbb-de2b-428f-a939-d9a421bb2023","amount":"$7.35","description":"Bigtax","date":"1/21/2019","location_latitude":35.8037979,"location_longitude":128.5005419,"type":"-"},
{"account_id":"b40185b9-0127-484a-bd35-863a6ee85c60","amount":"$0.61","description":"Transcof","date":"3/19/2018","location_latitude":-12.7414031,"location_longitude":-60.1304566,"type":"+"},
{"account_id":"5cb0c096-80b7-47d9-8f26-c8e4d514452a","amount":"$4.97","description":"Zathin","date":"11/28/2023","location_latitude":58.3598758,"location_longitude":33.9054011,"type":"+"},
{"account_id":"4e898bdf-95c1-4e64-92c5-145f5bf66903","amount":"$2.83","description":"Cookley","date":"8/17/2019","location_latitude":40.3942118,"location_longitude":44.6854034,"type":"+"},
{"account_id":"fb1132ee-e83b-4960-97c7-1505df92e413","amount":"$0.52","description":"Flexidy","date":"10/11/2018","location_latitude":51.4523697,"location_longitude":34.8557117,"type":"+"},
{"account_id":"9fe692c0-3a96-4428-bbae-e73120632cd6","amount":"$7.07","description":"Bytecard","date":"4/1/2021","location_latitude":6.9152967,"location_longitude":7.5138947,"type":"+"},
{"account_id":"145a358d-7e13-4065-8761-5aff149c9195","amount":"$1.76","description":"Greenlam","date":"4/27/2022","location_latitude":29.339476,"location_longitude":105.287612,"type":"+"},
{"account_id":"fffdc68f-e5c3-4ab7-a0fc-23733c6e909f","amount":"$4.58","description":"Regrant","date":"6/6/2022","location_latitude":-32.8361857,"location_longitude":-54.7604286,"type":"-"},
{"account_id":"7d76b92a-1cfa-466d-8313-68ec8145613c","amount":"$0.74","description":"Kanlam","date":"9/23/2022","location_latitude":14.5458392,"location_longitude":121.0044883,"type":"-"},
{"account_id":"b138f9fe-4385-4675-a677-2640fb09a4ae","amount":"$3.39","description":"Stringtough","date":"5/11/2022","location_latitude":60.053638,"location_longitude":29.9846651,"type":"+"},
{"account_id":"a5889e47-bf85-4ef2-8c45-ff9e27505e45","amount":"$7.58","description":"Bitchip","date":"2/18/2023","location_latitude":15.04538,"location_longitude":120.671684,"type":"+"},
{"account_id":"b40185b9-0127-484a-bd35-863a6ee85c60","amount":"$0.97","description":"Vagram","date":"2/20/2021","location_latitude":19.4137276,"location_longitude":-102.0662939,"type":"-"},
{"account_id":"30e6d998-6bd5-4c9c-ac93-86a43c94fd47","amount":"$1.74","description":"Solarbreeze","date":"2/20/2019","location_latitude":40.7530733,"location_longitude":-73.8269805,"type":"+"},
{"account_id":"4e898bdf-95c1-4e64-92c5-145f5bf66903","amount":"$0.12","description":"Biodex","date":"3/30/2021","location_latitude":8.2853585,"location_longitude":-78.1792434,"type":"+"},
{"account_id":"7d76b92a-1cfa-466d-8313-68ec8145613c","amount":"$0.74","description":"Konklux","date":"6/8/2023","location_latitude":49.5242389,"location_longitude":17.3082766,"type":"-"},
{"account_id":"aa8516e1-ebdf-4d72-b651-3d1a3fca3275","amount":"$4.58","description":"Zontrax","date":"11/19/2024","location_latitude":41.9121057,"location_longitude":22.4068944,"type":"+"},
{"account_id":"","amount":"$8.78","description":"Mat Lam Tam","date":"2/21/2024","location_latitude":18.0313661,"location_longitude":103.7089573,"type":"-"},
{"account_id":"7d76b92a-1cfa-466d-8313-68ec8145613c","amount":"$4.77","description":"Latlux","date":"6/13/2018","location_latitude":30.572815,"location_longitude":104.066801,"type":"-"},
{"account_id":"7d76b92a-1cfa-466d-8313-68ec8145613c","amount":"$3.53","description":"Treeflex","date":"5/6/2018","location_latitude":-6.8544539,"location_longitude":106.5230542,"type":"+"},
{"account_id":"fb1132ee-e83b-4960-97c7-1505df92e413","amount":"$6.95","description":"Namfix","date":"3/28/2020","location_latitude":23.020673,"location_longitude":113.751799,"type":"+"},
{"account_id":"30e6d998-6bd5-4c9c-ac93-86a43c94fd47","amount":"$6.02","description":"Cardify","date":"1/6/2024","location_latitude":48.5051169,"location_longitude":-72.2292881,"type":"-"},
{"account_id":"5f4bbec3-3bf8-4215-b8b9-d7ea1be10f72","amount":"$0.42","description":"Span","date":"12/2/2022","location_latitude":43.4945737,"location_longitude":5.8978018,"type":"+"},
{"account_id":"a5889e47-bf85-4ef2-8c45-ff9e27505e45","amount":"$4.97","description":"Wrapsafe","date":"5/2/2018","location_latitude":-4.9281176,"location_longitude":38.904164,"type":"+"},
{"account_id":"62a05934-b9c6-4818-ad49-0b8f0ae14f91","amount":"$8.30","description":"Tres-Zap","date":"7/3/2024","location_latitude":22.2566889,"location_longitude":106.4731314,"type":"+"},
{"account_id":"fb1132ee-e83b-4960-97c7-1505df92e413","amount":"$7.10","description":"Gembucket","date":"12/2/2021","location_latitude":34.714779,"location_longitude":111.47239,"type":"+"},
{"account_id":"1e82ffbb-de2b-428f-a939-d9a421bb2023","amount":"$6.99","description":"Cardify","date":"10/1/2018","location_latitude":49.6745448,"location_longitude":22.0537208,"type":"-"},
{"account_id":"","amount":"$1.27","description":"Keylex","date":"12/21/2023","location_latitude":5.4552197,"location_longitude":100.4115631,"type":"-"},
{"account_id":"7fcf9335-d179-465a-8f1a-ef3f68c97bd8","amount":"$6.79","description":"Greenlam","date":"11/3/2021","location_latitude":-34.990888,"location_longitude":138.574391,"type":"-"},
{"account_id":"62a05934-b9c6-4818-ad49-0b8f0ae14f91","amount":"$7.70","description":"Holdlamis","date":"7/2/2020","location_latitude":53.016924,"location_longitude":70.0973718,"type":"+"},
{"account_id":"a5889e47-bf85-4ef2-8c45-ff9e27505e45","amount":"$7.35","description":"Cardguard","date":"9/24/2024","location_latitude":14.9163748,"location_longitude":-23.6040974,"type":"+"},
{"account_id":"30e6d998-6bd5-4c9c-ac93-86a43c94fd47","amount":"$0.43","description":"Fintone","date":"8/28/2024","location_latitude":-9.0047392,"location_longitude":-35.4124355,"type":"+"},
{"account_id":"81f19fbd-0c0a-441e-bbba-2ca5ecd5aae9","amount":"$1.94","description":"Keylex","date":"12/19/2022","location_latitude":36.219687,"location_longitude":98.166902,"type":"-"},
{"account_id":"d62e19d5-df87-40fb-ae2b-d77342620c80","amount":"$1.78","description":"Bitchip","date":"9/30/2018","location_latitude":56.8674893,"location_longitude":60.2882554,"type":"-"},
{"account_id":"22807c39-632d-4df4-83c9-3e088d2ab98b","amount":"$7.99","description":"Bitwolf","date":"5/29/2022","location_latitude":-6.612633,"location_longitude":111.0631793,"type":"+"},
{"account_id":"30e6d998-6bd5-4c9c-ac93-86a43c94fd47","amount":"$5.26","description":"Rank","date":"11/21/2023","location_latitude":27.859517,"location_longitude":114.758301,"type":"-"},
{"account_id":"a5889e47-bf85-4ef2-8c45-ff9e27505e45","amount":"$4.63","description":"Otcom","date":"6/10/2023","location_latitude":44.6186368,"location_longitude":33.6059169,"type":"-"},
{"account_id":"905bed78-1d7c-4703-b66d-8162992a5023","amount":"$8.48","description":"Prodder","date":"7/2/2023","location_latitude":-28.8241753,"location_longitude":17.256296,"type":"+"},
{"account_id":"30e6d998-6bd5-4c9c-ac93-86a43c94fd47","amount":"$9.80","description":"Fintone","date":"7/12/2022","location_latitude":21.918203,"location_longitude":110.853299,"type":"-"},
{"account_id":"fb1132ee-e83b-4960-97c7-1505df92e413","amount":"$9.02","description":"Fix San","date":"7/20/2024","location_latitude":50.2350707,"location_longitude":38.0596975,"type":"-"},
{"account_id":"30e6d998-6bd5-4c9c-ac93-86a43c94fd47","amount":"$8.86","description":"Stronghold","date":"5/4/2019","location_latitude":-16.361238,"location_longitude":-46.900245,"type":"+"},
{"account_id":"62a05934-b9c6-4818-ad49-0b8f0ae14f91","amount":"$9.88","description":"Cookley","date":"6/9/2019","location_latitude":30.402167,"location_longitude":112.899762,"type":"+"},
{"account_id":"b138f9fe-4385-4675-a677-2640fb09a4ae","amount":"$8.31","description":"Stringtough","date":"3/24/2022","location_latitude":46.3410071,"location_longitude":3.2530151,"type":"-"},
{"account_id":"30e6d998-6bd5-4c9c-ac93-86a43c94fd47","amount":"$6.85","description":"Andalax","date":"7/22/2024","location_latitude":30.905779,"location_longitude":120.670141,"type":"-"},
{"account_id":"20382b16-19d1-439d-af42-c05e0100c06e","amount":"$4.79","description":"Sub-Ex","date":"3/5/2019","location_latitude":14.5700525,"location_longitude":121.021201,"type":"+"},
{"account_id":"7d76b92a-1cfa-466d-8313-68ec8145613c","amount":"$6.18","description":"Bamity","date":"4/26/2020","location_latitude":-8.2334215,"location_longitude":114.3787108,"type":"-"},
{"account_id":"62a05934-b9c6-4818-ad49-0b8f0ae14f91","amount":"$8.33","description":"Veribet","date":"11/27/2022","location_latitude":31.830035,"location_longitude":115.388966,"type":"+"},
{"account_id":"aa8516e1-ebdf-4d72-b651-3d1a3fca3275","amount":"$3.04","description":"Fix San","date":"8/29/2020","location_latitude":35.1595454,"location_longitude":126.8526012,"type":"-"},
{"account_id":"1e82ffbb-de2b-428f-a939-d9a421bb2023","amount":"$2.17","description":"Tampflex","date":"9/2/2020","location_latitude":42.073507,"location_longitude":-8.3872537,"type":"+"},
{"account_id":"30e6d998-6bd5-4c9c-ac93-86a43c94fd47","amount":"$8.84","description":"Solarbreeze","date":"5/10/2018","location_latitude":51.506437,"location_longitude":100.6714581,"type":"-"},
{"account_id":"5cb0c096-80b7-47d9-8f26-c8e4d514452a","amount":"$5.84","description":"Prodder","date":"12/13/2024","location_latitude":41.6490501,"location_longitude":-8.7836437,"type":"-"},
{"account_id":"4e898bdf-95c1-4e64-92c5-145f5bf66903","amount":"$1.54","description":"Konklab","date":"11/19/2024","location_latitude":39.4621054,"location_longitude":-8.1986484,"type":"+"},
{"account_id":"5cb0c096-80b7-47d9-8f26-c8e4d514452a","amount":"$6.24","description":"Vagram","date":"11/3/2022","location_latitude":37.175532,"location_longitude":121.790282,"type":"-"},
{"account_id":"216b93c6-525a-4c74-ba09-2efea1df84aa","amount":"$1.32","description":"Y-find","date":"4/27/2019","location_latitude":38.6816201,"location_longitude":-9.1534942,"type":"-"},
{"account_id":"81f19fbd-0c0a-441e-bbba-2ca5ecd5aae9","amount":"$1.53","description":"Bitchip","date":"10/29/2020","location_latitude":28.260141,"location_longitude":112.571923,"type":"-"},
{"account_id":"1e82ffbb-de2b-428f-a939-d9a421bb2023","amount":"$3.76","description":"Fintone","date":"12/21/2020","location_latitude":14.4994231,"location_longitude":121.0204566,"type":"+"},
{"account_id":"5cb0c096-80b7-47d9-8f26-c8e4d514452a","amount":"$3.65","description":"Holdlamis","date":"11/17/2019","location_latitude":8.3663119,"location_longitude":-62.6496813,"type":"+"},
{"account_id":"145a358d-7e13-4065-8761-5aff149c9195","amount":"$9.41","description":"Prodder","date":"4/27/2023","location_latitude":-17.7332512,"location_longitude":168.3273245,"type":"-"},
{"account_id":"b40185b9-0127-484a-bd35-863a6ee85c60","amount":"$8.69","description":"Lotlux","date":"11/5/2018","location_latitude":51.8911132,"location_longitude":31.5958532,"type":"-"},
{"account_id":"905bed78-1d7c-4703-b66d-8162992a5023","amount":"$2.80","description":"Transcof","date":"8/29/2018","location_latitude":"41.43999","location_longitude":"22.79536","type":"+"},
{"account_id":"a5889e47-bf85-4ef2-8c45-ff9e27505e45","amount":"$5.79","description":"Overhold","date":"8/18/2021","location_latitude":29.803849,"location_longitude":118.862331,"type":"-"},
{"account_id":"216b93c6-525a-4c74-ba09-2efea1df84aa","amount":"$2.00","description":"Alphazap","date":"12/23/2023","location_latitude":29.5530941,"location_longitude":118.9353968,"type":"-"},
{"account_id":"fffdc68f-e5c3-4ab7-a0fc-23733c6e909f","amount":"$7.21","description":"Holdlamis","date":"10/4/2020","location_latitude":16.503112,"location_longitude":107.3375791,"type":"+"},
{"account_id":"81f19fbd-0c0a-441e-bbba-2ca5ecd5aae9","amount":"$4.76","description":"Y-find","date":"3/6/2020","location_latitude":50.060504,"location_longitude":12.985071,"type":"+"},
{"account_id":"81f19fbd-0c0a-441e-bbba-2ca5ecd5aae9","amount":"$7.06","description":"Quo Lux","date":"1/31/2021","location_latitude":38.0222208,"location_longitude":23.7851957,"type":"-"},
{"account_id":"9fe692c0-3a96-4428-bbae-e73120632cd6","amount":"$6.80","description":"Redhold","date":"4/13/2024","location_latitude":29.2964866,"location_longitude":48.079379,"type":"-"},
{"account_id":"fb1132ee-e83b-4960-97c7-1505df92e413","amount":"$8.29","description":"Gembucket","date":"6/4/2018","location_latitude":3.706995,"location_longitude":103.1024948,"type":"-"},
{"account_id":"04a4aac6-70d7-446d-8125-b301c8d56e6d","amount":"$4.90","description":"Lotstring","date":"7/18/2024","location_latitude":45.2977605,"location_longitude":2.5135985,"type":"+"},
{"account_id":"d62e19d5-df87-40fb-ae2b-d77342620c80","amount":"$8.09","description":"Treeflex","date":"11/24/2024","location_latitude":5.3523231,"location_longitude":100.3573891,"type":"+"},
{"account_id":"890643c6-ca4d-47ea-a3ce-c53a64608ba7","amount":"$7.96","description":"Biodex","date":"12/11/2020","location_latitude":-6.614938,"location_longitude":120.43382,"type":"-"},
{"account_id":"4e898bdf-95c1-4e64-92c5-145f5bf66903","amount":"$1.71","description":"Asoka","date":"7/15/2023","location_latitude":-25.5452817,"location_longitude":-54.5890256,"type":"+"},
{"account_id":"b40185b9-0127-484a-bd35-863a6ee85c60","amount":"$8.10","description":"Flexidy","date":"5/28/2022","location_latitude":49.3909134,"location_longitude":30.1988199,"type":"-"},
{"account_id":"a5889e47-bf85-4ef2-8c45-ff9e27505e45","amount":"$1.46","description":"Cardify","date":"1/28/2019","location_latitude":47.797708,"location_longitude":5.2787119,"type":"-"},
{"account_id":"145a358d-7e13-4065-8761-5aff149c9195","amount":"$8.52","description":"Home Ing","date":"5/29/2023","location_latitude":14.5806413,"location_longitude":121.0036417,"type":"+"},
{"account_id":"d62e19d5-df87-40fb-ae2b-d77342620c80","amount":"$7.62","description":"Ronstring","date":"11/22/2022","location_latitude":35.732798,"location_longitude":116.489043,"type":"-"},
{"account_id":"1e82ffbb-de2b-428f-a939-d9a421bb2023","amount":"$4.17","description":"Fintone","date":"9/8/2019","location_latitude":39.7380371,"location_longitude":-105.0265195,"type":"-"},
{"account_id":"145a358d-7e13-4065-8761-5aff149c9195","amount":"$1.89","description":"Wrapsafe","date":"12/4/2022","location_latitude":44.4528239,"location_longitude":19.0902035,"type":"-"},
{"account_id":"fffdc68f-e5c3-4ab7-a0fc-23733c6e909f","amount":"$8.15","description":"Regrant","date":"2/4/2018","location_latitude":13.3601931,"location_longitude":99.9129845,"type":"-"},
{"account_id":"b138f9fe-4385-4675-a677-2640fb09a4ae","amount":"$9.97","description":"Flowdesk","date":"8/12/2023","location_latitude":59.8228866,"location_longitude":10.855315,"type":"-"},
{"account_id":"62a05934-b9c6-4818-ad49-0b8f0ae14f91","amount":"$5.77","description":"Zamit","date":"11/19/2022","location_latitude":-7.3897541,"location_longitude":108.8640607,"type":"-"},
{"account_id":"22807c39-632d-4df4-83c9-3e088d2ab98b","amount":"$4.61","description":"Job","date":"2/4/2024","location_latitude":31.878735,"location_longitude":117.26467,"type":"-"},
{"account_id":"7d76b92a-1cfa-466d-8313-68ec8145613c","amount":"$1.77","description":"Stronghold","date":"9/10/2021","location_latitude":8.7463586,"location_longitude":-74.8273184,"type":"+"},
{"account_id":"a5889e47-bf85-4ef2-8c45-ff9e27505e45","amount":"$4.06","description":"Prodder","date":"4/11/2021","location_latitude":59.4248225,"location_longitude":56.6216121,"type":"+"},
{"account_id":"d62e19d5-df87-40fb-ae2b-d77342620c80","amount":"$2.21","description":"Pannier","date":"12/21/2019","location_latitude":36.933812,"location_longitude":116.638327,"type":"-"},
{"account_id":"5cb0c096-80b7-47d9-8f26-c8e4d514452a","amount":"$3.38","description":"Home Ing","date":"6/27/2024","location_latitude":6.8517845,"location_longitude":-73.111356,"type":"-"},
{"account_id":"9fe692c0-3a96-4428-bbae-e73120632cd6","amount":"$9.79","description":"Hatity","date":"2/8/2024","location_latitude":-9.2263237,"location_longitude":33.6422932,"type":"+"},
{"account_id":"81f19fbd-0c0a-441e-bbba-2ca5ecd5aae9","amount":"$7.14","description":"Rank","date":"2/13/2023","location_latitude":-7.9675395,"location_longitude":112.7032945,"type":"-"},
{"account_id":"a5889e47-bf85-4ef2-8c45-ff9e27505e45","amount":"$5.19","description":"Konklab","date":"9/25/2022","location_latitude":-7.2784402,"location_longitude":106.6094916,"type":"+"},
{"account_id":"905bed78-1d7c-4703-b66d-8162992a5023","amount":"$7.60","description":"Job","date":"6/19/2020","location_latitude":49.0522544,"location_longitude":14.4342708,"type":"-"},
{"account_id":"5f4bbec3-3bf8-4215-b8b9-d7ea1be10f72","amount":"$2.95","description":"Sonsing","date":"9/29/2018","location_latitude":50.5213838,"location_longitude":2.6404239,"type":"-"},
{"account_id":"22807c39-632d-4df4-83c9-3e088d2ab98b","amount":"$1.59","description":"Hatity","date":"5/8/2019","location_latitude":-19.0081688,"location_longitude":-57.6515503,"type":"-"},
{"account_id":"5f4bbec3-3bf8-4215-b8b9-d7ea1be10f72","amount":"$7.49","description":"Prodder","date":"12/25/2018","location_latitude":-20.0249637,"location_longitude":-63.5216019,"type":"+"},
{"account_id":"a5889e47-bf85-4ef2-8c45-ff9e27505e45","amount":"$10.00","description":"Holdlamis","date":"2/22/2023","location_latitude":51.2688569,"location_longitude":22.636336,"type":"-"},
{"account_id":"","amount":"$7.86","description":"Home Ing","date":"1/24/2022","location_latitude":14.8465342,"location_longitude":-88.3032755,"type":"-"},
{"account_id":"905bed78-1d7c-4703-b66d-8162992a5023","amount":"$6.54","description":"Cookley","date":"6/14/2022","location_latitude":22.198745,"location_longitude":113.543873,"type":"+"},
{"account_id":"4e898bdf-95c1-4e64-92c5-145f5bf66903","amount":"$1.95","description":"Viva","date":"9/28/2024","location_latitude":39.574695,"location_longitude":113.28303,"type":"+"},
{"account_id":"890643c6-ca4d-47ea-a3ce-c53a64608ba7","amount":"$7.07","description":"Veribet","date":"6/2/2021","location_latitude":-20.9343608,"location_longitude":-66.220355,"type":"+"},
{"account_id":"fb1132ee-e83b-4960-97c7-1505df92e413","amount":"$6.93","description":"Stim","date":"8/27/2020","location_latitude":37.0939437,"location_longitude":-8.2461254,"type":"-"},
{"account_id":"5f4bbec3-3bf8-4215-b8b9-d7ea1be10f72","amount":"$1.36","description":"Duobam","date":"4/6/2019","location_latitude":"53.36678","location_longitude":"-104.00092","type":"-"},
{"account_id":"04a4aac6-70d7-446d-8125-b301c8d56e6d","amount":"$7.27","description":"Matsoft","date":"11/9/2022","location_latitude":-3.6619451,"location_longitude":119.5513689,"type":"-"},
{"account_id":"aa8516e1-ebdf-4d72-b651-3d1a3fca3275","amount":"$1.32","description":"Domainer","date":"7/3/2022","location_latitude":31.77,"location_longitude":-106.43,"type":"-"},
{"account_id":"890643c6-ca4d-47ea-a3ce-c53a64608ba7","amount":"$3.31","description":"Bytecard","date":"8/20/2019","location_latitude":49.5438285,"location_longitude":18.2789033,"type":"-"},
{"account_id":"aa8516e1-ebdf-4d72-b651-3d1a3fca3275","amount":"$5.07","description":"Pannier","date":"12/30/2019","location_latitude":32.313822,"location_longitude":105.255491,"type":"-"},
{"account_id":"145a358d-7e13-4065-8761-5aff149c9195","amount":"$0.00","description":"Bitwolf","date":"4/19/2022","location_latitude":28.1459758,"location_longitude":112.9889132,"type":"-"},
{"account_id":"a5889e47-bf85-4ef2-8c45-ff9e27505e45","amount":"$4.66","description":"Pannier","date":"5/12/2019","location_latitude":32.271335,"location_longitude":121.293439,"type":"+"},
{"account_id":"","amount":"$8.24","description":"Tresom","date":"2/15/2024","location_latitude":23.201636,"location_longitude":99.330641,"type":"-"},
{"account_id":"216b93c6-525a-4c74-ba09-2efea1df84aa","amount":"$3.56","description":"Bytecard","date":"6/4/2024","location_latitude":34.954134,"location_longitude":108.320121,"type":"+"},
{"account_id":"30e6d998-6bd5-4c9c-ac93-86a43c94fd47","amount":"$6.36","description":"Konklux","date":"7/16/2019","location_latitude":"35.89917","location_longitude":"14.49444","type":"+"},
{"account_id":"d62e19d5-df87-40fb-ae2b-d77342620c80","amount":"$0.75","description":"Ronstring","date":"10/22/2018","location_latitude":42.8518656,"location_longitude":-8.5638609,"type":"-"},
{"account_id":"b40185b9-0127-484a-bd35-863a6ee85c60","amount":"$8.73","description":"Holdlamis","date":"9/13/2022","location_latitude":46.5010451,"location_longitude":15.1077845,"type":"-"},
{"account_id":"216b93c6-525a-4c74-ba09-2efea1df84aa","amount":"$7.07","description":"Andalax","date":"8/12/2020","location_latitude":41.3899483,"location_longitude":-8.3685941,"type":"-"},
{"account_id":"216b93c6-525a-4c74-ba09-2efea1df84aa","amount":"$2.72","description":"Latlux","date":"6/4/2020","location_latitude":50.1082363,"location_longitude":18.4301703,"type":"-"},
{"account_id":"145a358d-7e13-4065-8761-5aff149c9195","amount":"$9.85","description":"Alphazap","date":"8/27/2024","location_latitude":49.788203,"location_longitude":19.70598,"type":"-"},
{"account_id":"905bed78-1d7c-4703-b66d-8162992a5023","amount":"$8.93","description":"Tampflex","date":"6/17/2022","location_latitude":31.1393795,"location_longitude":-97.8047404,"type":"+"},
{"account_id":"890643c6-ca4d-47ea-a3ce-c53a64608ba7","amount":"$6.83","description":"Latlux","date":"11/26/2024","location_latitude":47.4303768,"location_longitude":34.6147082,"type":"+"},
{"account_id":"4e898bdf-95c1-4e64-92c5-145f5bf66903","amount":"$2.35","description":"It","date":"1/7/2024","location_latitude":22.517585,"location_longitude":113.39277,"type":"+"},
{"account_id":"5cb0c096-80b7-47d9-8f26-c8e4d514452a","amount":"$3.96","description":"Toughjoyfax","date":"12/6/2022","location_latitude":10.3296345,"location_longitude":37.7343987,"type":"-"},
{"account_id":"fffdc68f-e5c3-4ab7-a0fc-23733c6e909f","amount":"$8.03","description":"Y-Solowarm","date":"7/16/2019","location_latitude":39.5779145,"location_longitude":48.9718588,"type":"-"},
{"account_id":"4e898bdf-95c1-4e64-92c5-145f5bf66903","amount":"$9.12","description":"Bytecard","date":"8/13/2018","location_latitude":44.4123524,"location_longitude":16.5814309,"type":"-"},
{"account_id":"5cb0c096-80b7-47d9-8f26-c8e4d514452a","amount":"$0.32","description":"Cardguard","date":"3/25/2024","location_latitude":35.1933373,"location_longitude":102.5064329,"type":"+"},
{"account_id":"fffdc68f-e5c3-4ab7-a0fc-23733c6e909f","amount":"$2.55","description":"Y-Solowarm","date":"7/24/2021","location_latitude":-2.176347,"location_longitude":-79.4366324,"type":"-"},
{"account_id":"5f4bbec3-3bf8-4215-b8b9-d7ea1be10f72","amount":"$6.39","description":"Veribet","date":"5/14/2020","location_latitude":14.5570092,"location_longitude":121.0388628,"type":"+"},
{"account_id":"d62e19d5-df87-40fb-ae2b-d77342620c80","amount":"$5.36","description":"Temp","date":"11/11/2021","location_latitude":29.7440687,"location_longitude":106.9762193,"type":"-"},
{"account_id":"62a05934-b9c6-4818-ad49-0b8f0ae14f91","amount":"$0.91","description":"Zontrax","date":"12/6/2020","location_latitude":29.919421,"location_longitude":121.085794,"type":"-"},
{"account_id":"890643c6-ca4d-47ea-a3ce-c53a64608ba7","amount":"$3.78","description":"Transcof","date":"4/8/2022","location_latitude":51.532126,"location_longitude":92.8882656,"type":"+"},
{"account_id":"216b93c6-525a-4c74-ba09-2efea1df84aa","amount":"$4.74","description":"Zaam-Dox","date":"12/2/2021","location_latitude":50.756497,"location_longitude":21.8951181,"type":"-"},
{"account_id":"81f19fbd-0c0a-441e-bbba-2ca5ecd5aae9","amount":"$0.46","description":"Fix San","date":"2/23/2018","location_latitude":40.97465,"location_longitude":117.943348,"type":"+"},
{"account_id":"7fcf9335-d179-465a-8f1a-ef3f68c97bd8","amount":"$3.11","description":"Cardify","date":"6/4/2023","location_latitude":38.1536393,"location_longitude":140.266785,"type":"+"},
{"account_id":"","amount":"$9.20","description":"Home Ing","date":"11/13/2024","location_latitude":32.131522,"location_longitude":115.051908,"type":"+"},
{"account_id":"7d76b92a-1cfa-466d-8313-68ec8145613c","amount":"$2.57","description":"Stim","date":"12/19/2024","location_latitude":63.1454739,"location_longitude":22.7948195,"type":"+"},
{"account_id":"5cb0c096-80b7-47d9-8f26-c8e4d514452a","amount":"$5.84","description":"Prodder","date":"1/7/2021","location_latitude":56.493108,"location_longitude":56.2088361,"type":"+"},
{"account_id":"890643c6-ca4d-47ea-a3ce-c53a64608ba7","amount":"$2.91","description":"Duobam","date":"9/6/2018","location_latitude":-7.003771,"location_longitude":108.2257659,"type":"-"},
{"account_id":"fb1132ee-e83b-4960-97c7-1505df92e413","amount":"$7.71","description":"Rank","date":"5/18/2018","location_latitude":41.0213628,"location_longitude":-80.6150117,"type":"-"},
{"account_id":"aa8516e1-ebdf-4d72-b651-3d1a3fca3275","amount":"$1.28","description":"Tresom","date":"11/29/2022","location_latitude":56.2835999,"location_longitude":44.0036677,"type":"+"},
{"account_id":"b40185b9-0127-484a-bd35-863a6ee85c60","amount":"$4.31","description":"Veribet","date":"9/11/2019","location_latitude":60.4197445,"location_longitude":25.5652484,"type":"+"},
{"account_id":"22807c39-632d-4df4-83c9-3e088d2ab98b","amount":"$0.45","description":"Mat Lam Tam","date":"2/18/2021","location_latitude":13.8811133,"location_longitude":123.6886104,"type":"-"},
{"account_id":"b138f9fe-4385-4675-a677-2640fb09a4ae","amount":"$0.13","description":"Y-Solowarm","date":"6/24/2018","location_latitude":1.058464,"location_longitude":-77.5661219,"type":"+"},
{"account_id":"fb1132ee-e83b-4960-97c7-1505df92e413","amount":"$1.31","description":"Job","date":"1/23/2019","location_latitude":8.9282133,"location_longitude":-74.5697617,"type":"+"},
{"account_id":"81f19fbd-0c0a-441e-bbba-2ca5ecd5aae9","amount":"$7.53","description":"Solarbreeze","date":"4/3/2024","location_latitude":30.780217,"location_longitude":120.644805,"type":"+"},
{"account_id":"a5889e47-bf85-4ef2-8c45-ff9e27505e45","amount":"$2.08","description":"Y-find","date":"12/6/2021","location_latitude":6.6614944,"location_longitude":7.7688358,"type":"+"},
{"account_id":"22807c39-632d-4df4-83c9-3e088d2ab98b","amount":"$5.76","description":"Zathin","date":"6/25/2022","location_latitude":-1.3750813,"location_longitude":37.9952144,"type":"+"},
{"account_id":"b40185b9-0127-484a-bd35-863a6ee85c60","amount":"$0.50","description":"Zaam-Dox","date":"5/13/2021","location_latitude":27.9593333,"location_longitude":-82.7996813,"type":"-"},
{"account_id":"fb1132ee-e83b-4960-97c7-1505df92e413","amount":"$9.85","description":"Lotstring","date":"8/6/2021","location_latitude":-7.6185371,"location_longitude":110.6013327,"type":"-"},
{"account_id":"890643c6-ca4d-47ea-a3ce-c53a64608ba7","amount":"$2.60","description":"Keylex","date":"7/10/2023","location_latitude":24.716803,"location_longitude":118.476341,"type":"-"},
{"account_id":"","amount":"$6.34","description":"Keylex","date":"2/13/2020","location_latitude":-8.1135472,"location_longitude":112.3367573,"type":"+"},
{"account_id":"30e6d998-6bd5-4c9c-ac93-86a43c94fd47","amount":"$8.44","description":"Rank","date":"7/14/2019","location_latitude":10.3231036,"location_longitude":-3.1679257,"type":"-"},
{"account_id":"9fe692c0-3a96-4428-bbae-e73120632cd6","amount":"$3.62","description":"Hatity","date":"11/13/2018","location_latitude":41.6755501,"location_longitude":20.0553882,"type":"+"},
{"account_id":"905bed78-1d7c-4703-b66d-8162992a5023","amount":"$0.83","description":"Tempsoft","date":"5/19/2018","location_latitude":48.2044234,"location_longitude":5.942257,"type":"-"},
{"account_id":"fffdc68f-e5c3-4ab7-a0fc-23733c6e909f","amount":"$2.90","description":"Lotstring","date":"5/24/2020","location_latitude":"-7.20429","location_longitude":"113.53198","type":"+"},
{"account_id":"5cb0c096-80b7-47d9-8f26-c8e4d514452a","amount":"$0.74","description":"Rank","date":"5/7/2022","location_latitude":34.7955755,"location_longitude":46.9368047,"type":"+"},
{"account_id":"b40185b9-0127-484a-bd35-863a6ee85c60","amount":"$6.71","description":"Home Ing","date":"11/26/2024","location_latitude":41.2614535,"location_longitude":24.9516869,"type":"+"},
{"account_id":"216b93c6-525a-4c74-ba09-2efea1df84aa","amount":"$9.19","description":"Stringtough","date":"9/19/2021","location_latitude":"35.68206","location_longitude":"10.72746","type":"+"},
{"account_id":"","amount":"$7.41","description":"Tres-Zap","date":"10/26/2020","location_latitude":23.134117,"location_longitude":106.417805,"type":"-"},
{"account_id":"7fcf9335-d179-465a-8f1a-ef3f68c97bd8","amount":"$4.84","description":"Veribet","date":"12/11/2024","location_latitude":29.503085,"location_longitude":108.984759,"type":"+"},
{"account_id":"905bed78-1d7c-4703-b66d-8162992a5023","amount":"$5.08","description":"Voyatouch","date":"12/7/2022","location_latitude":28.2281301,"location_longitude":112.9884237,"type":"+"},
{"account_id":"7fcf9335-d179-465a-8f1a-ef3f68c97bd8","amount":"$9.47","description":"Zontrax","date":"11/15/2019","location_latitude":56.7423811,"location_longitude":61.7593478,"type":"-"},
{"account_id":"","amount":"$5.82","description":"Tempsoft","date":"12/5/2019","location_latitude":35.86166,"location_longitude":104.195397,"type":"-"},
{"account_id":"5f4bbec3-3bf8-4215-b8b9-d7ea1be10f72","amount":"$9.84","description":"Daltfresh","date":"5/17/2022","location_latitude":41.0084382,"location_longitude":70.074132,"type":"+"},
{"account_id":"905bed78-1d7c-4703-b66d-8162992a5023","amount":"$7.80","description":"Mat Lam Tam","date":"11/6/2020","location_latitude":-27.508507,"location_longitude":-58.555985,"type":"+"},
{"account_id":"905bed78-1d7c-4703-b66d-8162992a5023","amount":"$3.67","description":"Cardguard","date":"3/3/2022","location_latitude":58.610989,"location_longitude":24.5034541,"type":"-"},
{"account_id":"905bed78-1d7c-4703-b66d-8162992a5023","amount":"$0.69","description":"Wrapsafe","date":"10/21/2022","location_latitude":-1.0756073,"location_longitude":17.1602683,"type":"-"},
{"account_id":"7fcf9335-d179-465a-8f1a-ef3f68c97bd8","amount":"$5.81","description":"Job","date":"8/27/2018","location_latitude":40.2221306,"location_longitude":-8.0122102,"type":"+"},
{"account_id":"fffdc68f-e5c3-4ab7-a0fc-23733c6e909f","amount":"$0.76","description":"Lotstring","date":"7/7/2019","location_latitude":13.8138823,"location_longitude":44.161347,"type":"+"},
{"account_id":"04a4aac6-70d7-446d-8125-b301c8d56e6d","amount":"$0.24","description":"Span","date":"3/8/2024","location_latitude":59.5891945,"location_longitude":16.5104253,"type":"+"},
{"account_id":"30e6d998-6bd5-4c9c-ac93-86a43c94fd47","amount":"$5.59","description":"Cardguard","date":"7/27/2019","location_latitude":45.5155832,"location_longitude":-122.6788535,"type":"+"},
{"account_id":"5f4bbec3-3bf8-4215-b8b9-d7ea1be10f72","amount":"$7.04","description":"Voyatouch","date":"6/25/2019","location_latitude":34.3963158,"location_longitude":35.8958444,"type":"+"},
{"account_id":"04a4aac6-70d7-446d-8125-b301c8d56e6d","amount":"$2.71","description":"Zathin","date":"12/20/2024","location_latitude":6.961969,"location_longitude":-75.4190689,"type":"+"},
{"account_id":"a5889e47-bf85-4ef2-8c45-ff9e27505e45","amount":"$2.28","description":"Daltfresh","date":"10/19/2023","location_latitude":-7.324188,"location_longitude":110.509841,"type":"+"},
{"account_id":"b138f9fe-4385-4675-a677-2640fb09a4ae","amount":"$4.84","description":"Y-find","date":"8/3/2021","location_latitude":45.9402271,"location_longitude":15.4773182,"type":"+"},
{"account_id":"fb1132ee-e83b-4960-97c7-1505df92e413","amount":"$2.42","description":"Vagram","date":"6/15/2021","location_latitude":5.1970659,"location_longitude":96.5076426,"type":"+"},
{"account_id":"7d76b92a-1cfa-466d-8313-68ec8145613c","amount":"$8.95","description":"Tres-Zap","date":"6/27/2020","location_latitude":-20.6869406,"location_longitude":-41.4812771,"type":"-"},
{"account_id":"fb1132ee-e83b-4960-97c7-1505df92e413","amount":"$7.25","description":"Hatity","date":"7/29/2018","location_latitude":31.644606,"location_longitude":119.781147,"type":"+"},
{"account_id":"20382b16-19d1-439d-af42-c05e0100c06e","amount":"$8.49","description":"Daltfresh","date":"11/28/2024","location_latitude":34.145966,"location_longitude":105.757408,"type":"+"},
{"account_id":"a5889e47-bf85-4ef2-8c45-ff9e27505e45","amount":"$4.34","description":"Overhold","date":"5/31/2019","location_latitude":31.352859,"location_longitude":118.432941,"type":"+"},
{"account_id":"5cb0c096-80b7-47d9-8f26-c8e4d514452a","amount":"$3.12","description":"Sonsing","date":"11/22/2022","location_latitude":5.1744472,"location_longitude":7.7145152,"type":"-"},
{"account_id":"62a05934-b9c6-4818-ad49-0b8f0ae14f91","amount":"$9.48","description":"Toughjoyfax","date":"1/19/2023","location_latitude":-22.4313914,"location_longitude":-43.4289497,"type":"-"},
{"account_id":"fffdc68f-e5c3-4ab7-a0fc-23733c6e909f","amount":"$7.15","description":"Duobam","date":"6/20/2018","location_latitude":64.3018789,"location_longitude":19.6203523,"type":"+"},
{"account_id":"890643c6-ca4d-47ea-a3ce-c53a64608ba7","amount":"$2.52","description":"Transcof","date":"3/12/2023","location_latitude":-8.4769874,"location_longitude":123.0845277,"type":"-"},
{"account_id":"7fcf9335-d179-465a-8f1a-ef3f68c97bd8","amount":"$2.13","description":"Aerified","date":"2/26/2022","location_latitude":28.311573,"location_longitude":120.562011,"type":"-"},
{"account_id":"aa8516e1-ebdf-4d72-b651-3d1a3fca3275","amount":"$1.15","description":"Ronstring","date":"11/15/2019","location_latitude":48.0999989,"location_longitude":-66.0999999,"type":"+"},
{"account_id":"9fe692c0-3a96-4428-bbae-e73120632cd6","amount":"$4.18","description":"Tresom","date":"7/29/2018","location_latitude":33.379845,"location_longitude":115.569092,"type":"+"},
{"account_id":"216b93c6-525a-4c74-ba09-2efea1df84aa","amount":"$9.94","description":"Lotstring","date":"11/15/2023","location_latitude":27.718295,"location_longitude":119.394148,"type":"+"},
{"account_id":"216b93c6-525a-4c74-ba09-2efea1df84aa","amount":"$6.45","description":"Bytecard","date":"11/9/2018","location_latitude":24.390595,"location_longitude":114.522393,"type":"-"},
{"account_id":"b138f9fe-4385-4675-a677-2640fb09a4ae","amount":"$5.42","description":"Veribet","date":"3/1/2020","location_latitude":45.8131644,"location_longitude":14.3171319,"type":"-"},
{"account_id":"b40185b9-0127-484a-bd35-863a6ee85c60","amount":"$3.83","description":"Lotstring","date":"5/25/2018","location_latitude":40.4092617,"location_longitude":49.8670924,"type":"+"},
{"account_id":"b40185b9-0127-484a-bd35-863a6ee85c60","amount":"$2.31","description":"Alpha","date":"1/24/2018","location_latitude":8.797145,"location_longitude":-75.698571,"type":"+"},
{"account_id":"20382b16-19d1-439d-af42-c05e0100c06e","amount":"$6.74","description":"Opela","date":"8/18/2023","location_latitude":7.9122744,"location_longitude":98.3459726,"type":"+"},
{"account_id":"fffdc68f-e5c3-4ab7-a0fc-23733c6e909f","amount":"$8.71","description":"Zoolab","date":"9/28/2020","location_latitude":11.8310981,"location_longitude":13.1509672,"type":"-"},
{"account_id":"216b93c6-525a-4c74-ba09-2efea1df84aa","amount":"$2.57","description":"Quo Lux","date":"12/16/2023","location_latitude":"53.26683","location_longitude":"-113.81874","type":"-"},
{"account_id":"d62e19d5-df87-40fb-ae2b-d77342620c80","amount":"$5.04","description":"Sonair","date":"3/31/2023","location_latitude":39.8286146,"location_longitude":69.5320824,"type":"+"},
{"account_id":"fffdc68f-e5c3-4ab7-a0fc-23733c6e909f","amount":"$9.89","description":"Voyatouch","date":"10/25/2021","location_latitude":-34.6795558,"location_longitude":-58.5577501,"type":"-"},
{"account_id":"5cb0c096-80b7-47d9-8f26-c8e4d514452a","amount":"$2.08","description":"Home Ing","date":"9/5/2021","location_latitude":8.8498948,"location_longitude":99.4117197,"type":"-"},
{"account_id":"a5889e47-bf85-4ef2-8c45-ff9e27505e45","amount":"$10.00","description":"Toughjoyfax","date":"5/22/2021","location_latitude":52.2422556,"location_longitude":20.1030049,"type":"+"},
{"account_id":"5f4bbec3-3bf8-4215-b8b9-d7ea1be10f72","amount":"$7.91","description":"Zamit","date":"6/3/2018","location_latitude":31.859653,"location_longitude":120.558606,"type":"-"},
{"account_id":"890643c6-ca4d-47ea-a3ce-c53a64608ba7","amount":"$1.84","description":"Transcof","date":"5/9/2018","location_latitude":-6.3079232,"location_longitude":107.172085,"type":"-"},
{"account_id":"890643c6-ca4d-47ea-a3ce-c53a64608ba7","amount":"$9.45","description":"Prodder","date":"5/22/2023","location_latitude":50.4823057,"location_longitude":14.9414959,"type":"-"},
{"account_id":"04a4aac6-70d7-446d-8125-b301c8d56e6d","amount":"$9.69","description":"Duobam","date":"10/25/2019","location_latitude":34.749864,"location_longitude":106.137293,"type":"-"},
{"account_id":"04a4aac6-70d7-446d-8125-b301c8d56e6d","amount":"$8.78","description":"Cardguard","date":"11/30/2024","location_latitude":-7.158502,"location_longitude":109.263397,"type":"-"},
{"account_id":"62a05934-b9c6-4818-ad49-0b8f0ae14f91","amount":"$7.87","description":"Stringtough","date":"9/23/2024","location_latitude":-21.35188,"location_longitude":-46.4970116,"type":"+"},
{"account_id":"7d76b92a-1cfa-466d-8313-68ec8145613c","amount":"$3.61","description":"Zoolab","date":"8/17/2018","location_latitude":"34.26545","location_longitude":"67.34516","type":"+"},
{"account_id":"5f4bbec3-3bf8-4215-b8b9-d7ea1be10f72","amount":"$1.88","description":"Cardguard","date":"1/15/2023","location_latitude":28.3259527,"location_longitude":69.8373919,"type":"-"},
{"account_id":"aa8516e1-ebdf-4d72-b651-3d1a3fca3275","amount":"$5.72","description":"Fintone","date":"10/25/2024","location_latitude":"-10.31","location_longitude":"123.69983","type":"+"},
{"account_id":"9fe692c0-3a96-4428-bbae-e73120632cd6","amount":"$9.64","description":"Stringtough","date":"8/12/2020","location_latitude":38.6606177,"location_longitude":-8.9867835,"type":"-"},
{"account_id":"7fcf9335-d179-465a-8f1a-ef3f68c97bd8","amount":"$5.79","description":"Viva","date":"7/15/2024","location_latitude":24.2410769,"location_longitude":117.6558038,"type":"+"},
{"account_id":"1e82ffbb-de2b-428f-a939-d9a421bb2023","amount":"$2.62","description":"Konklux","date":"9/15/2023","location_latitude":27.356747,"location_longitude":110.944708,"type":"+"},
{"account_id":"d62e19d5-df87-40fb-ae2b-d77342620c80","amount":"$5.39","description":"Matsoft","date":"2/18/2021","location_latitude":25.941937,"location_longitude":117.365052,"type":"-"},
{"account_id":"a5889e47-bf85-4ef2-8c45-ff9e27505e45","amount":"$0.58","description":"Job","date":"4/22/2023","location_latitude":47.585569,"location_longitude":18.3979984,"type":"+"},
{"account_id":"9fe692c0-3a96-4428-bbae-e73120632cd6","amount":"$6.55","description":"Opela","date":"5/20/2022","location_latitude":39.5061499,"location_longitude":20.2655339,"type":"+"},
{"account_id":"9fe692c0-3a96-4428-bbae-e73120632cd6","amount":"$2.35","description":"Voltsillam","date":"8/20/2020","location_latitude":11.7367016,"location_longitude":122.0389128,"type":"+"},
{"account_id":"216b93c6-525a-4c74-ba09-2efea1df84aa","amount":"$5.33","description":"Alpha","date":"7/31/2023","location_latitude":28.109577,"location_longitude":107.269482,"type":"-"},
{"account_id":"1e82ffbb-de2b-428f-a939-d9a421bb2023","amount":"$3.89","description":"Stringtough","date":"8/13/2022","location_latitude":49.6603908,"location_longitude":18.4922736,"type":"+"},
{"account_id":"62a05934-b9c6-4818-ad49-0b8f0ae14f91","amount":"$7.64","description":"Bitwolf","date":"5/19/2022","location_latitude":-3.8017999,"location_longitude":-38.4809114,"type":"-"},
{"account_id":"145a358d-7e13-4065-8761-5aff149c9195","amount":"$1.99","description":"Voltsillam","date":"3/30/2022","location_latitude":"42.22609","location_longitude":"129.20776","type":"+"},
{"account_id":"30e6d998-6bd5-4c9c-ac93-86a43c94fd47","amount":"$5.36","description":"Cardguard","date":"9/11/2023","location_latitude":-3.185681,"location_longitude":104.0362587,"type":"+"},
{"account_id":"fb1132ee-e83b-4960-97c7-1505df92e413","amount":"$3.06","description":"Namfix","date":"6/4/2020","location_latitude":30.677233,"location_longitude":121.015142,"type":"-"},
{"account_id":"30e6d998-6bd5-4c9c-ac93-86a43c94fd47","amount":"$0.84","description":"Overhold","date":"4/23/2018","location_latitude":11.7629173,"location_longitude":124.3277267,"type":"+"},
{"account_id":"81f19fbd-0c0a-441e-bbba-2ca5ecd5aae9","amount":"$2.68","description":"Lotstring","date":"12/27/2019","location_latitude":16.7903346,"location_longitude":120.8249088,"type":"+"},
{"account_id":"5cb0c096-80b7-47d9-8f26-c8e4d514452a","amount":"$4.21","description":"Namfix","date":"4/15/2024","location_latitude":"13.7192","location_longitude":"123.6675","type":"-"},
{"account_id":"9fe692c0-3a96-4428-bbae-e73120632cd6","amount":"$6.69","description":"Matsoft","date":"1/18/2022","location_latitude":"7.59464","location_longitude":"6.22476","type":"-"},
{"account_id":"d62e19d5-df87-40fb-ae2b-d77342620c80","amount":"$5.67","description":"Home Ing","date":"5/17/2020","location_latitude":-6.4698758,"location_longitude":107.4780383,"type":"+"}]